analyze_volume_2019
…
lOOK AT OUTLIER

Visual
Graph raw data by shrub island

Count how many plot pairs had increases vs.decreases

Load data

setwd("~/Shrubs-Seedlings/code/Shrub_experiment/analyze/")
load(file = "../../../compiled_data/shrub_removal_cleaned.Rdata")

df %>% arrange(SdlgID) %>% select(1:5)

## # A tibble: 382 x 5
##    SdlgID   compartment island plot  sdlg 
##    <chr>    <fct>       <fct>  <fct> <chr>
##  1 180A1_10 180         A      1     10   
##  2 180A1_7  180         A      1     7    
##  3 180A1_8  180         A      1     8    
##  4 180A1_9  180         A      1     9    
##  5 180A2_1  180         A      2     1    
##  6 180A2_3  180         A      2     3    
##  7 180A2_4  180         A      2     4    
##  8 180A2_6  180         A      2     6    
##  9 180B1_11 180         B      1     11   
## 10 180B1_12 180         B      1     12   
## # ... with 372 more rows
…
df_island <- dfpipo %>% 
  group_by(island, compartment, shrubs) %>% 
  summarize(mean_growth_rel = mean(growth_rel), n = n()) %>% 
  ungroup() %>% 
  group_by(compartment, island) 

df_island_diff <- spread(df_island %>% select(-n), key = shrubs, value = mean_growth_rel) %>% 
  arrange(island) %>% 
  mutate(higher = ifelse(removed > retained, "rem", "ret")) %>% 
  select(island, compartment, higher)

df_island_diff

## # A tibble: 24 x 3
## # Groups:   compartment, island [54]
##    island compartment higher
##    <fct>  <fct>       <chr> 
##  1 A      180         rem   
##  2 B      180         rem   
##  3 C      180         rem   
##  4 C      380         ret   
##  5 D      180         ret   
##  6 E      180         rem   
##  7 E      570         ret   
##  8 F      180         ret   
##  9 G      180         rem   
## 10 G      570         ret   
## # ... with 14 more rows
…
df_island <- dfABCO %>% 
  group_by(island, compartment, shrubs) %>% 
  summarize(mean_growth_rel = mean(growth_rel), n = n()) %>% 
  ungroup() %>% 
  group_by(compartment, island) 

df_island_diff <- spread(df_island %>% select(-n), key = shrubs, value = mean_growth_rel) %>% 
  arrange(island) %>% 
  mutate(higher = ifelse(removed > retained, "rem", "ret")) %>% 
  select(island, compartment, higher)

df_island_diff

## # A tibble: 23 x 3
## # Groups:   compartment, island [54]
##    island compartment higher
##    <fct>  <fct>       <chr> 
##  1 B      180         ret   
##  2 C      180         rem   
##  3 C      380         rem   
##  4 D      180         rem   
##  5 E      180         <NA>  
##  6 E      570         ret   
##  7 F      180         rem   
##  8 G      180         rem   
##  9 G      570         ret   
## 10 H      180         ret   
## # ... with 13 more rows
…
