Pine volumetric growth analysis - shrub experiment
…
MyData_pipo <- filter(MyData_pipo, island != "A")

Add pred

MyData_pipo$predMM <- predict(MM1_pipo, newdata = MyData_pipo)

Overall effect of removal on diameter growth

MyData_summary_pipo <- MyData_pipo %>% 
  group_by(shrubs, shrub_species, island) %>% 
  summarise(mean_predMM = mean(predMM))
MyData_summary_pipo

## # A tibble: 52 x 4
## # Groups:   shrubs, shrub_species [?]
##      shrubs shrub_species island mean_predMM
##      <fctr>        <fctr> <fctr>       <dbl>
##  1 retained          CECO      B  0.11797656
##  2 retained          CECO      C  0.13203674
##  3 retained          CECO      D  0.10984367
##  4 retained          CECO      E  0.13496268
##  5 retained          CECO      F  0.15892342
##  6 retained          CECO      G  0.12710539
##  7 retained          CECO      H  0.09219818
##  8 retained          CECO      J  0.15460176
##  9 retained          CECO      P  0.15327580
## 10 retained          CECO      Q  0.11804820
## # ... with 42 more rows
…
## png 
##   2

Plot effect of height

MyData_pipo$ht_norm <- as.numeric(paste(MyData_pipo$ht_norm))
MyData_pipo_height_summary <-  MyData_pipo %>% 
  group_by(shrub_species, shrubs, ht_norm) %>% 
  summarise(predMM = mean(predMM))
MyData_pipo_height_summary

## # A tibble: 80 x 4
## # Groups:   shrub_species, shrubs [?]
##    shrub_species   shrubs     ht_norm     predMM
##           <fctr>   <fctr>       <dbl>      <dbl>
##  1          CECO retained -1.27548357 0.08571061
##  2          CECO retained -0.96167026 0.08972538
##  3          CECO retained -0.64785695 0.09374015
##  4          CECO retained -0.33404364 0.09775492
##  5          CECO retained -0.02023033 0.10176969
##  6          CECO retained  0.29358299 0.10578446
##  7          CECO retained  0.60739630 0.10979922
##  8          CECO retained  0.92120961 0.11381399
##  9          CECO retained  1.23502292 0.11782876
## 10          CECO retained  1.54883623 0.12184353
## # ... with 70 more rows
…
Plot

Add pred

MyData_pipo$predMM_gls <- predict(G1_pipo, newdata = MyData_pipo)

Overall effect of removal on diameter growth

MyData_summary_pipo <- MyData_pipo %>% 
  group_by(shrubs, shrub_species, island) %>% 
  summarise(mean_predMM_gls = mean(predMM_gls))
MyData_summary_pipo

## # A tibble: 52 x 4
## # Groups:   shrubs, shrub_species [?]
##      shrubs shrub_species island mean_predMM_gls
##      <fctr>        <fctr> <fctr>           <dbl>
##  1 retained          CECO      B       0.1426365
##  2 retained          CECO      C       0.1426365
##  3 retained          CECO      D       0.1426365
##  4 retained          CECO      E       0.1426365
##  5 retained          CECO      F       0.1426365
##  6 retained          CECO      G       0.1426365
##  7 retained          CECO      H       0.1426365
##  8 retained          CECO      J       0.1426365
##  9 retained          CECO      P       0.1426365
## 10 retained          CECO      Q       0.1426365
## # ... with 42 more rows
…
