soil_moisture_analysis
…
Q_180_Control <- Q_180_Control[,c(1:3)]
colnames(Q_180_Control) <- c("date", "SM_1", "TEMP_1")
Q_180_Removal <- full_join(`180_Q_Removal_20171102.xls`, `180_Q_2_Removal_20170803.xls`)

## Joining, by = c("BL_B1", "Port 1", "Port 2", "Port 2__1", "Port 3")

Q_180_Removal <- Q_180_Removal[,c(1,3:4)]
colnames(Q_180_Removal) <- c("date","SM_2","TEMP_2")
Q_180 <- full_join(Q_180_Control, Q_180_Removal)

## Joining, by = "date"

Q_180

## # A tibble: 4,039 x 5
##      date  SM_1 TEMP_1  SM_2 TEMP_2
##    <dttm> <dbl>  <dbl> <dbl>  <dbl>
##  1     NA    NA     NA    NA     NA
##  2     NA    NA     NA    NA     NA
##  3     NA    NA     NA    NA     NA
##  4     NA    NA     NA    NA     NA
##  5     NA    NA     NA    NA     NA
##  6     NA    NA     NA    NA     NA
##  7     NA    NA     NA    NA     NA
##  8     NA    NA     NA    NA     NA
##  9     NA    NA     NA    NA     NA
## 10     NA    NA     NA    NA     NA
## # ... with 4,029 more rows
…
