Shrub experiment seedling data - cleaning
…
Make all island names uppercase

dfsp <- dfsp %>% mutate(island = toupper(island))
dfAu <- dfAu %>% mutate(island = toupper(island))

Overall cleaning not specific to vert or dia

Combine spring and August data

dfsp

## # A tibble: 451 x 12
##    compartment island  plot `seedling tag #` species `dm at base 1 (~
##          <dbl> <chr>  <dbl>            <dbl> <chr>              <dbl>
##  1         380 N          2                1 PIPO                 8.7
##  2         380 N          2               12 ABCO                 9.1
##  3         380 N          2               14 PIPO                 7.5
##  4         380 N          2               16 ABCO                17.2
##  5         380 N          2               13 ABCO                15.3
##  6         380 N          2               31 PIPO                 8.3
##  7         380 N          2               18 PIPO                14.5
##  8         380 N          2               32 PIPO                 8.5
##  9         380 N          2               33 ABCO                18.5
## 10         380 N          2               35 PIPO                16  
## # ... with 441 more rows, and 6 more variables: `dm at base 2 (mm)` <dbl>,
## #   `dm at 10 (1)` <chr>, `dm at 10 (2)` <chr>, notes <chr>, `growing
## #   yet.` <chr>, `height (before 2017 growth)` <dbl>

nrow(dfsp)

## [1] 451

dfsp %>% group_by(compartment, island) %>% summarise(n())

## # A tibble: 24 x 3
## # Groups:   compartment [?]
##    compartment island `n()`
##          <dbl> <chr>  <int>
##  1         180 A         10
##  2         180 B         30
##  3         180 C         20
##  4         180 D         23
##  5         180 E         13
##  6         180 F         19
##  7         180 G         22
##  8         180 H         21
##  9         180 J         29
## 10         180 P         21
## # ... with 14 more rows

dfAu

## # A tibble: 456 x 15
##    compartment island  plot `seedling tag #` species dead  ht_cm gr_2017_cm
##          <dbl> <chr>  <dbl>            <dbl> <chr>   <chr> <dbl>      <dbl>
##  1         180 A          2                1 PIPO    A       106        9.3
##  2         180 A          2                2 ABCO    D        NA       NA  
##  3         180 A          2                3 PIPO    A        25        2.1
##  4         180 A          2                4 PIPO    A        65        7.3
##  5         180 A          2                5 PIPO    A        76        1.3
##  6         180 A          2                6 PIPO    A        74        4.9
##  7         180 A          1                7 PIPO    A        48        9  
##  8         180 A          1                8 PIPO    A        28        3.4
##  9         180 A          1                9 PIPO    A        87       11.8
## 10         180 A          1               10 PIPO    A        35        4.9
## # ... with 446 more rows, and 7 more variables: gr_2016_cm <dbl>,
## #   gr_2015_cm <dbl>, bas_dia_mm_1 <dbl>, bas_dia_mm_2 <dbl>, `leader
## #   broke or died` <chr>, notes <chr>, `DIA/ht check` <dbl>
…
dfAu %>% group_by(compartment, island) %>% summarise(n())

## # A tibble: 24 x 3
## # Groups:   compartment [?]
##    compartment island `n()`
##          <dbl> <chr>  <int>
##  1         180 A         10
##  2         180 B         30
##  3         180 C         20
##  4         180 D         24
##  5         180 E         13
##  6         180 F         19
##  7         180 G         24
##  8         180 H         21
##  9         180 J         30
## 10         180 P         21
## # ... with 14 more rows
…
df <- df %>% 
  rename(spring_dia_1_mm = `dm at base 1 (mm)`) %>% 
  rename(spring_dia_2_mm = `dm at base 2 (mm)`) %>% 
  rename(Aug_dia_1_mm = bas_dia_mm_1) %>% 
  rename(Aug_dia_2_mm = bas_dia_mm_2) %>% 
  rename(growing = `growing yet.`) %>% 
  rename(sdlg = `seedling tag #`) %>% 
  rename(notes.spring = notes.x) %>% 
  rename(notes.Aug = notes.y) %>% 
  rename(leader_damage = `leader broke or died`) %>% 
  select(-`DIA/ht check`)
df

## # A tibble: 456 x 22
##    compartment island  plot  sdlg species.x spring_dia_1_mm spring_dia_2_mm
##          <dbl> <chr>  <dbl> <dbl> <chr>               <dbl>           <dbl>
##  1         380 N          2     1 PIPO                  8.7             8.5
##  2         380 N          2    12 ABCO                  9.1             8.6
##  3         380 N          2    14 PIPO                  7.5             8.1
##  4         380 N          2    16 ABCO                 17.2            16.1
##  5         380 N          2    13 ABCO                 15.3            15  
##  6         380 N          2    31 PIPO                  8.3             8.9
##  7         380 N          2    18 PIPO                 14.5            13.7
##  8         380 N          2    32 PIPO                  8.5             8  
##  9         380 N          2    33 ABCO                 18.5            17.3
## 10         380 N          2    35 PIPO                 16              14.2
## # ... with 446 more rows, and 15 more variables: `dm at 10 (1)` <chr>, `dm
## #   at 10 (2)` <chr>, notes.spring <chr>, growing <chr>, `height (before
## #   2017 growth)` <dbl>, species.y <chr>, dead <chr>, ht_cm <dbl>,
## #   gr_2017_cm <dbl>, gr_2016_cm <dbl>, gr_2015_cm <dbl>,
## #   Aug_dia_1_mm <dbl>, Aug_dia_2_mm <dbl>, leader_damage <chr>,
## #   notes.Aug <chr>
…
summary(as.factor(df_vert$leader_damage))

##                   0                2014                2015 
##                 362                   7                  18 
##                2016           2016,2017                2017 
##                  15                   1                  20 
##       2017 and 2016           2017,2015           2017,2016 
##                   1                   1                   1 
##       20172016,2015 gall in 2016 growth                NA's 
##                   1                   1                   5

df_vert %>% filter(!is.na(leader_damage) & leader_damage != 0)

## # A tibble: 66 x 26
##    compartment island  plot  sdlg spring_dia_1_mm spring_dia_2_mm
##          <dbl> <chr>  <dbl> <dbl>           <dbl>           <dbl>
##  1         380 N          2     1             8.7             8.5
##  2         380 N          2    32             8.5             8  
##  3         380 L          1    10             2.1             2  
##  4         380 L          2    33             4               3.7
##  5         380 Q          2    31             4.8             4.6
##  6         570 P          2     1             4.5             4.4
##  7         570 P          2    10             6.8             7.5
##  8         570 P          1    33             3.8             4  
##  9         570 P          1    35             1.3             1.6
## 10         380 K          2    35             3.6             3.7
## # ... with 56 more rows, and 20 more variables: notes.spring <chr>,
## #   growing <chr>, species <chr>, dead <chr>, ht_cm <dbl>,
## #   gr_2017_cm <dbl>, gr_2016_cm <dbl>, gr_2015_cm <dbl>,
## #   Aug_dia_1_mm <dbl>, Aug_dia_2_mm <dbl>, leader_damage <chr>,
## #   notes.Aug <chr>, shrub_species <chr>, shrubs <chr>, date_sdlg <dttm>,
## #   time_sdlg <dttm>, source_sdlg <chr>, gr_2017_rel <dbl>,
## #   gr_2016_rel <dbl>, gr_2015_rel <dbl>
…
