simulations_plot
…
If youre running this code on its own, you have to define data_date and n_reps at the top

name <- paste("Simulation1", data_date, n_reps, "empirical_welch_empiricalcoef_empiricalgrowth_empiricalindex", sep = "_")
df_filename <- paste("~/Ch3_Simulation_Results/", name, ".Rdata", sep = "")
load(df_filename)
strt <- Sys.time()

setwd("~/../Shrubs-Seedlings/code/Simulations/")

Find emerged trees at 8 years (first simulation year)

dfsimallreps %>% filter(Years == 8) %>% filter(emerged ==1) %>% dplyr::select(Sdlg, Species, ShrubSpp03, Ht1.3, Ht_cm1, emerged) %>% 
  distinct()

## # A tibble: 125 x 6
##    Sdlg  Species ShrubSpp03 Ht1.3 Ht_cm1 emerged
##    <fct> <fct>   <fct>      <dbl>  <dbl>   <dbl>
##  1 220   PIPO    CEIN        50     95.9       1
##  2 48    ABCO    Other       43.9   68.2       1
##  3 254   ABCO    CEIN        40     56.6       1
##  4 95    ABCO    CEIN        30     57.3       1
##  5 211   PIPO    CEIN        35     59.1       1
##  6 216   ABCO    CEIN        35     47.3       1
##  7 209   PIPO    CEIN        60     89         1
##  8 211   PIPO    CEIN        40     59.1       1
##  9 77    ABCO    CEIN         1.1   25.7       1
## 10 215   PIPO    CEIN        50     75.7       1
## # ... with 115 more rows
…
## `summarise()` regrouping output by 'Years', 'Species' (override with `.groups` argument)

summary_emerge

## # A tibble: 77,922 x 8
##    Years Species   rep total_emergents total initial_n prop_emerged density_ha
##    <dbl> <fct>   <int>           <dbl> <int>     <int>        <dbl>      <dbl>
##  1     8 ABCO        1               2    59        59       0.0339       4.90
##  2     8 ABCO        2               2    59        59       0.0339       4.90
##  3     8 ABCO        3               3    59        59       0.0508       7.35
##  4     8 ABCO        4               3    59        59       0.0508       7.35
##  5     8 ABCO        5               4    59        59       0.0678       9.80
##  6     8 ABCO        6               1    59        59       0.0169       2.45
##  7     8 ABCO        7               4    59        59       0.0678       9.80
##  8     8 ABCO        8               1    59        59       0.0169       2.45
##  9     8 ABCO        9               1    59        59       0.0169       2.45
## 10     8 ABCO       10               0    59        59       0            0   
## # ... with 77,912 more rows
…
