Diameter ~ Height
…
setwd("~/Shrubs-Seedlings/code/Simulations/")
load(file = "../../compiled_data/growth_mortality/dendro_all_vars.Rdata")
load(file = "../../compiled_data/growth_mortality/df_vert.Rdata")
dfvert <- df
remove(df)

Clean and wrangle data

Check for missing data

join <- tbl_df(join)
join %>% 
  filter(is.na(DEAD))

## # A tibble: 99 x 51
##    board tree  series radius `2004` `2005` `2006` `2007` `2008` `2009`
##    <chr> <chr> <chr>  <chr>   <dbl>  <dbl>  <dbl>  <dbl>  <dbl>  <dbl>
##  1 P2Bd~ 112   112BU~ 2          NA     NA     NA     NA  NA      0.06
##  2 P2Bd~ 112   112BU~ 1          NA     NA     NA     NA  NA      0.14
##  3 P2Bd~ 112   112BU~ 3          NA     NA     NA     NA  NA      0   
##  4 "P1B~ 136B  136BR1 1          NA     NA     NA     NA   0.77   0.33
##  5 "P1B~ 136B  136BR2 2          NA     NA     NA     NA   1.24   0.68
##  6 "P1B~ 136B  136BR3 3          NA     NA     NA     NA   0.98   0.74
##  7 "P1B~ 17B   17BR1  1          NA     NA     NA     NA  NA      0.68
##  8 "P1B~ 17B   17BR2  2          NA     NA     NA     NA  NA      0.93
##  9 "P1B~ 17B   17BR3  3          NA     NA     NA     NA  NA      0.75
## 10 P1Bd~ 145B  145BR1 1          NA     NA     NA     NA  NA     NA   
## # ... with 89 more rows, and 41 more variables: `2010` <dbl>,
## #   `2011` <dbl>, `2012` <dbl>, `2013` <dbl>, `2014` <dbl>, `2015` <dbl>,
## #   `2016` <dbl>, BU <dbl>, COMP <dbl>, DATE <dttm>, TIME <chr>,
## #   SPECIES <chr>, HEIGHT <dbl>, `dia/ht` <dbl>, DEAD_ALIVE <chr>,
## #   BAS_DIA_1_mm <dbl>, BAS_DIA_2_mm <dbl>, LAST_YR_GR_cm <dbl>,
## #   MINUS_1_GR_cm <dbl>, MINUS_2_GR_cm <dbl>, PERC_NEEDLES <chr>,
## #   NEEDLE_COLOR <chr>, `BLACK DOTS` <chr>, BARK <chr>, BUDS <chr>,
## #   `Growing?` <chr>, SUPPRESSED <chr>, `got it` <chr>, MECH_DAMAGE <dbl>,
## #   PATH_DAMAGE <chr>, Practice <chr>, `Tops cut?` <chr>, `photo checked
…
Remove unnecesary variables

join <- join %>% 
  dplyr::select(-BAS_DIA_1_mm, -BAS_DIA_2_mm, -BARK, -PERC_NEEDLES, -SUPPRESSED, -`BLACK DOTS`, -MECH_DAMAGE, -PATH_DAMAGE, -exclude_reason, -mateless, -`dia/ht`, -NEEDLE_COLOR, -`Growing?`, -BUDS, -TIME)

Restructure to make one row per tree and one column for year

df <- gather(join, key = "year", value = "growth", 5:17) %>% 
  tbl_df() %>% 
  dplyr::select(tree, series, year, growth, everything()) %>% 
  arrange(tree) %>% 
  filter(!is.na(growth))
df

## # A tibble: 5,525 x 25
##    tree  series year  growth board radius    BU  COMP DATE               
##    <chr> <chr>  <chr>  <dbl> <chr> <chr>  <dbl> <dbl> <dttm>             
##  1 1     1R1    2014    0.21 P1Bd~ 1          0   180 2017-08-14 00:00:00
##  2 1     1R2    2014    0.15 P1Bd~ 2          0   180 2017-08-14 00:00:00
##  3 1     1R3    2014    0.18 P1Bd~ 3          0   180 2017-08-14 00:00:00
##  4 1     1R1    2015    0.2  P1Bd~ 1          0   180 2017-08-14 00:00:00
##  5 1     1R2    2015    0.22 P1Bd~ 2          0   180 2017-08-14 00:00:00
##  6 1     1R3    2015    0.17 P1Bd~ 3          0   180 2017-08-14 00:00:00
##  7 1     1R1    2016    0.17 P1Bd~ 1          0   180 2017-08-14 00:00:00
##  8 1     1R2    2016    0.21 P1Bd~ 2          0   180 2017-08-14 00:00:00
##  9 1     1R3    2016    0.19 P1Bd~ 3          0   180 2017-08-14 00:00:00
## 10 10    10R1   2012    0.32 P1Bd~ 1          0   180 2017-08-14 00:00:00
## # ... with 5,515 more rows, and 16 more variables: SPECIES <chr>,
## #   HEIGHT <dbl>, DEAD_ALIVE <chr>, LAST_YR_GR_cm <dbl>,
## #   MINUS_1_GR_cm <dbl>, MINUS_2_GR_cm <dbl>, `got it` <chr>,
## #   Practice <chr>, `Tops cut?` <chr>, `photo checked in lab?` <chr>,
## #   thrown_out <chr>, Cut_at_bottom <dbl>, DEAD <fct>, BAS_DIA_AVE <dbl>,
## #   PAIR <chr>, NOTES <chr>
…
df <- df %>% 
  group_by(tree, year) %>% 
  mutate(mean_growth_dia = mean(growth)*2) %>% 
  dplyr::select(-growth,-radius, -series) %>% 
  distinct() %>% 
  dplyr::select(tree, year, mean_growth_dia, everything()) %>% 
  rename(BAS_DIA_AVE_mm = BAS_DIA_AVE)
df

## # A tibble: 1,843 x 23
## # Groups:   tree, year [1,843]
##    tree  year  mean_growth_dia board    BU  COMP DATE               
##    <chr> <chr>           <dbl> <chr> <dbl> <dbl> <dttm>             
##  1 1     2014            0.36  P1Bd~     0   180 2017-08-14 00:00:00
##  2 1     2015            0.393 P1Bd~     0   180 2017-08-14 00:00:00
##  3 1     2016            0.38  P1Bd~     0   180 2017-08-14 00:00:00
##  4 10    2012            0.707 P1Bd~     0   180 2017-08-14 00:00:00
##  5 10    2013            0.773 P1Bd~     0   180 2017-08-14 00:00:00
##  6 10    2014            0.727 P1Bd~     0   180 2017-08-14 00:00:00
##  7 10    2015            0.56  P1Bd~     0   180 2017-08-14 00:00:00
##  8 10    2016            0.733 P1Bd~     0   180 2017-08-14 00:00:00
##  9 100   2014            0.78  P1Bd~     0   180 2017-08-23 00:00:00
## 10 100   2015            0.313 P1Bd~     0   180 2017-08-23 00:00:00
## # ... with 1,833 more rows, and 16 more variables: SPECIES <chr>,
## #   HEIGHT <dbl>, DEAD_ALIVE <chr>, LAST_YR_GR_cm <dbl>,
## #   MINUS_1_GR_cm <dbl>, MINUS_2_GR_cm <dbl>, `got it` <chr>,
## #   Practice <chr>, `Tops cut?` <chr>, `photo checked in lab?` <chr>,
## #   thrown_out <chr>, Cut_at_bottom <dbl>, DEAD <fct>,
## #   BAS_DIA_AVE_mm <dbl>, PAIR <chr>, NOTES <chr>
…
df <- left_join(df, dfvert)

## Joining, by = "tree"

NOTE: I am not fixing the death year because it doesnt matter to me. Im not including calenar year as a fixed effect.

Calculate relative vertical growth for each year

df %>% 
   dplyr::select(tree, DEAD_ALIVE, year, year, HEIGHT, LAST_YR_GR_cm, gr1, gr2, gr3, ht1, ht2, ht3, ht4) %>% 
  filter(DEAD_ALIVE == "ALIVE")

## # A tibble: 824 x 12
## # Groups:   tree, year [824]
##    tree  DEAD_ALIVE year  HEIGHT LAST_YR_GR_cm   gr1   gr2    gr3   ht1
##    <chr> <chr>      <chr>  <dbl>         <dbl> <dbl> <dbl>  <dbl> <dbl>
##  1 100B  ALIVE      2011      23           2.8 0.139 0.262 0.495     23
##  2 100B  ALIVE      2012      23           2.8 0.139 0.262 0.495     23
##  3 100B  ALIVE      2013      23           2.8 0.139 0.262 0.495     23
##  4 100B  ALIVE      2014      23           2.8 0.139 0.262 0.495     23
##  5 100B  ALIVE      2015      23           2.8 0.139 0.262 0.495     23
##  6 100B  ALIVE      2016      23           2.8 0.139 0.262 0.495     23
##  7 101B  ALIVE      2012      52           8.7 0.201 0.270 0.0723    52
##  8 101B  ALIVE      2013      52           8.7 0.201 0.270 0.0723    52
##  9 101B  ALIVE      2014      52           8.7 0.201 0.270 0.0723    52
## 10 101B  ALIVE      2015      52           8.7 0.201 0.270 0.0723    52
## # ... with 814 more rows, and 3 more variables: ht2 <dbl>, ht3 <dbl>,
## #   ht4 <dbl>
…
## # A tibble: 2 x 15
## # Groups:   tree, year [2]
##   tree  DEAD_ALIVE year  HEIGHT LAST_YR_GR_cm MINUS_1_GR_cm MINUS_2_GR_cm
##   <chr> <chr>      <chr>  <dbl>         <dbl>         <dbl>         <dbl>
## 1 1     DEAD       2015      19           2.5           2.6           2.9
## 2 214   DEAD       2015      77           0             9             3.5
## # ... with 8 more variables: gr1 <dbl>, gr2 <dbl>, gr3 <dbl>, ht1 <dbl>,
## #   ht2 <dbl>, ht3 <dbl>, relgrvert <dbl>, CHECK <dbl>

df %>% 
   dplyr::select(tree, DEAD_ALIVE, year, HEIGHT, LAST_YR_GR_cm, MINUS_1_GR_cm, MINUS_2_GR_cm, gr1, gr2, gr3, ht1, ht2, ht3, relgrvert) %>%
  arrange(tree)

## # A tibble: 1,644 x 14
## # Groups:   tree, year [1,644]
##    tree  DEAD_ALIVE year  HEIGHT LAST_YR_GR_cm MINUS_1_GR_cm MINUS_2_GR_cm
##    <chr> <chr>      <chr>  <dbl>         <dbl>         <dbl>         <dbl>
##  1 1     DEAD       2014      19           2.5           2.6           2.9
##  2 1     DEAD       2015      19           2.5           2.6           2.9
##  3 1     DEAD       2016      19           2.5           2.6           2.9
##  4 10    DEAD       2012      56           5             7.9          10.7
##  5 10    DEAD       2013      56           5             7.9          10.7
##  6 10    DEAD       2014      56           5             7.9          10.7
##  7 10    DEAD       2015      56           5             7.9          10.7
##  8 10    DEAD       2016      56           5             7.9          10.7
##  9 100   DEAD       2014      24           5             5.7           3.5
## 10 100   DEAD       2015      24           5             5.7           3.5
## # ... with 1,634 more rows, and 7 more variables: gr1 <dbl>, gr2 <dbl>,
## #   gr3 <dbl>, ht1 <dbl>, ht2 <dbl>, ht3 <dbl>, relgrvert <dbl>
…
Check

df %>% 
   dplyr::select(tree, DEAD_ALIVE, year, HEIGHT, LAST_YR_GR_cm, MINUS_1_GR_cm, MINUS_2_GR_cm,gr1, gr2, gr3, ht1, ht2, ht3,ht4, relgrvert, pre_growth_height, ht_growth) %>%
  arrange(tree)

## # A tibble: 1,644 x 17
## # Groups:   tree, year [1,644]
##    tree  DEAD_ALIVE year  HEIGHT LAST_YR_GR_cm MINUS_1_GR_cm MINUS_2_GR_cm
##    <chr> <chr>      <chr>  <dbl>         <dbl>         <dbl>         <dbl>
##  1 1     DEAD       2014      19           2.5           2.6           2.9
##  2 1     DEAD       2015      19           2.5           2.6           2.9
##  3 1     DEAD       2016      19           2.5           2.6           2.9
##  4 10    DEAD       2012      56           5             7.9          10.7
##  5 10    DEAD       2013      56           5             7.9          10.7
##  6 10    DEAD       2014      56           5             7.9          10.7
##  7 10    DEAD       2015      56           5             7.9          10.7
##  8 10    DEAD       2016      56           5             7.9          10.7
##  9 100   DEAD       2014      24           5             5.7           3.5
## 10 100   DEAD       2015      24           5             5.7           3.5
## # ... with 1,634 more rows, and 10 more variables: gr1 <dbl>, gr2 <dbl>,
## #   gr3 <dbl>, ht1 <dbl>, ht2 <dbl>, ht3 <dbl>, ht4 <dbl>,
## #   relgrvert <dbl>, pre_growth_height <dbl>, ht_growth <dbl>
…
df <- df %>% 
  mutate(pre_growth_diameter = BAS_DIA_AVE_mm-cumulative_growth) 

Check

df %>% 
  dplyr::select(tree, year, mean_growth_dia, cumulative_growth, pre_growth_diameter, BAS_DIA_AVE_mm, everything())  

## # A tibble: 1,644 x 39
## # Groups:   tree [318]
##    tree  year  mean_growth_dia cumulative_grow~ pre_growth_diam~
##    <chr> <chr>           <dbl>            <dbl>            <dbl>
##  1 1     2014            0.36             1.13              1.47
##  2 1     2015            0.393            0.773             1.83
##  3 1     2016            0.38             0.38              2.22
##  4 10    2012            0.707            0                 7.25
##  5 10    2013            0.773            0                 7.25
##  6 10    2014            0.727            2.02              5.23
##  7 10    2015            0.56             1.29              5.96
##  8 10    2016            0.733            0.733             6.52
##  9 100   2014            0.78             1.77              2.23
## 10 100   2015            0.313            0.987             3.01
## # ... with 1,634 more rows, and 34 more variables: BAS_DIA_AVE_mm <dbl>,
## #   board <chr>, BU <dbl>, COMP <dbl>, DATE <dttm>, SPECIES <chr>,
## #   HEIGHT <dbl>, DEAD_ALIVE <chr>, LAST_YR_GR_cm <dbl>,
## #   MINUS_1_GR_cm <dbl>, MINUS_2_GR_cm <dbl>, `got it` <chr>,
## #   Practice <chr>, `Tops cut?` <chr>, `photo checked in lab?` <chr>,
## #   thrown_out <chr>, Cut_at_bottom <dbl>, DEAD <fct>, PAIR <chr>,
## #   NOTES <chr>, Notes <chr>, BAS_DIA_AVE <dbl>, ht1 <dbl>, ht2 <dbl>,
## #   ht3 <dbl>, ht4 <dbl>, gr1 <dbl>, gr2 <dbl>, gr3 <dbl>,
## #   death_year <dbl>, gr_rel_ave <dbl>, relgrvert <dbl>,
## #   pre_growth_height <dbl>, ht_growth <dbl>

df

## # A tibble: 1,644 x 39
## # Groups:   tree [318]
##    tree  year  mean_growth_dia board    BU  COMP DATE               
##    <chr> <chr>           <dbl> <chr> <dbl> <dbl> <dttm>             
##  1 1     2014            0.36  P1Bd~     0   180 2017-08-14 00:00:00
##  2 1     2015            0.393 P1Bd~     0   180 2017-08-14 00:00:00
##  3 1     2016            0.38  P1Bd~     0   180 2017-08-14 00:00:00
##  4 10    2012            0.707 P1Bd~     0   180 2017-08-14 00:00:00
##  5 10    2013            0.773 P1Bd~     0   180 2017-08-14 00:00:00
##  6 10    2014            0.727 P1Bd~     0   180 2017-08-14 00:00:00
##  7 10    2015            0.56  P1Bd~     0   180 2017-08-14 00:00:00
##  8 10    2016            0.733 P1Bd~     0   180 2017-08-14 00:00:00
##  9 100   2014            0.78  P1Bd~     0   180 2017-08-23 00:00:00
## 10 100   2015            0.313 P1Bd~     0   180 2017-08-23 00:00:00
## # ... with 1,634 more rows, and 32 more variables: SPECIES <chr>,
## #   HEIGHT <dbl>, DEAD_ALIVE <chr>, LAST_YR_GR_cm <dbl>,
## #   MINUS_1_GR_cm <dbl>, MINUS_2_GR_cm <dbl>, `got it` <chr>,
## #   Practice <chr>, `Tops cut?` <chr>, `photo checked in lab?` <chr>,
## #   thrown_out <chr>, Cut_at_bottom <dbl>, DEAD <fct>,
## #   BAS_DIA_AVE_mm <dbl>, PAIR <chr>, NOTES <chr>, Notes <chr>,
## #   BAS_DIA_AVE <dbl>, ht1 <dbl>, ht2 <dbl>, ht3 <dbl>, ht4 <dbl>,
## #   gr1 <dbl>, gr2 <dbl>, gr3 <dbl>, death_year <dbl>, gr_rel_ave <dbl>,
## #   relgrvert <dbl>, pre_growth_height <dbl>, ht_growth <dbl>,
…
