simulations_plot
…
summary_prop <- summary_prop %>% 
  ungroup() %>% 
  group_by(rep, initial_n, Species) %>% 
  filter(Years== max(Years)) %>% 
  summarize(emerged = sum(emerged)) %>% 
  mutate(prop_emerged = emerged/initial_n) 

summary_prop

## # A tibble: 1,976 x 5
## # Groups:   rep, initial_n [1,976]
##      rep initial_n Species emerged prop_emerged
##    <int>     <int> <fct>     <dbl>        <dbl>
##  1     1        74 PIPO         62        0.838
##  2     1       123 ABCO         73        0.593
##  3     2        74 PIPO         57        0.770
##  4     2       123 ABCO         86        0.699
##  5     3        57 PIPO         45        0.789
##  6     3       139 ABCO         68        0.489
##  7     4        67 PIPO         56        0.836
##  8     4       127 ABCO         59        0.465
##  9     5        54 PIPO         45        0.833
## 10     5       143 ABCO         74        0.517
## # ... with 1,966 more rows
…
