simulations_plot
…
 summary_emerge %>% filter(Years %in% c(25,26)) %>% filter(Species == "ABCO") %>% 
  group_by(Years) %>% 
  count()

## # A tibble: 2 x 2
## # Groups:   Years [2]
##   Years     n
##   <dbl> <int>
## 1    25   986
## 2    26   986

 summary_emerge %>% filter(Years %in% c(25,26)) %>% filter(Species == "ABCO") %>% group_by(rep) %>% mutate(diff = diff(prop_emerged)) %>% arrange(desc(diff))

## # A tibble: 1,972 x 8
## # Groups:   rep [986]
##    Years Species   rep total_emergents total initial_n prop_emerged  diff
##    <dbl> <fct>   <int>           <dbl> <int>     <int>        <dbl> <dbl>
##  1    25 ABCO      114               0    97       115       0      0.339
##  2    26 ABCO      114              39    96       115       0.339  0.339
##  3    25 ABCO      666               0    92       106       0      0.321
##  4    26 ABCO      666              34    90       106       0.321  0.321
##  5    25 ABCO      509               0   101       114       0      0.316
##  6    26 ABCO      509              36    98       114       0.316  0.316
##  7    25 ABCO      377               6    98       113       0.0531 0.301
##  8    25 ABCO      712               0    98       113       0      0.301
##  9    26 ABCO      377              40    96       113       0.354  0.301
## 10    26 ABCO      712              34    96       113       0.301  0.301
## # ... with 1,962 more rows
…
