Growth_mort
…
Plot the relationships between variables inputting the diameter growth equations to compare them to what I saw in the dendro analysis

test <- dfsimallreps %>% 
  filter(Years %in% c(19,20)) %>% 
  dplyr::select(Sdlg, Species, Ht_cm1, dia.cm, Years, pred_exp, rep, ID_withinrep) %>% 
  tbl_df() %>% 
  arrange(Sdlg)
test

## # A tibble: 28,584 x 8
##    Sdlg  Species Ht_cm1 dia.cm Years pred_exp   rep ID_withinrep
##    <chr> <fct>    <dbl>  <dbl> <dbl>    <dbl> <int>        <int>
##  1 104   ABCO      172.   4.87    20   0.0601     2           58
##  2 104   ABCO      172.   4.87    20   0.0601     2          124
##  3 104   ABCO      163.   4.57    19   0.0659     2           58
##  4 104   ABCO      163.   4.57    19   0.0659     2          124
##  5 104   ABCO      172.   4.87    20   0.0601     3           26
##  6 104   ABCO      172.   4.87    20   0.0601     3           55
##  7 104   ABCO      172.   4.87    20   0.0601     3           64
##  8 104   ABCO      172.   4.87    20   0.0601     3          119
##  9 104   ABCO      163.   4.57    19   0.0659     3           26
## 10 104   ABCO      163.   4.57    19   0.0659     3           55
## # ... with 28,574 more rows

test <- test %>% 
  mutate(ID = paste(Sdlg, rep, ID_withinrep, sep = "-"))
test %>% 
  arrange(ID)

## # A tibble: 28,584 x 9
##    Sdlg  Species Ht_cm1 dia.cm Years pred_exp   rep ID_withinrep ID         
##    <chr> <fct>    <dbl>  <dbl> <dbl>    <dbl> <int>        <int> <chr>      
##  1 104   ABCO      172.   4.87    20   0.0601    10          172 104-10-172 
##  2 104   ABCO      163.   4.57    19   0.0659    10          172 104-10-172 
##  3 104   ABCO      172.   4.87    20   0.0601   100          183 104-100-183
##  4 104   ABCO      163.   4.57    19   0.0659   100          183 104-100-183
##  5 104   ABCO      172.   4.87    20   0.0601   100           29 104-100-29 
##  6 104   ABCO      163.   4.57    19   0.0659   100           29 104-100-29 
##  7 104   ABCO      172.   4.87    20   0.0601    11           15 104-11-15  
##  8 104   ABCO      163.   4.57    19   0.0659    11           15 104-11-15  
##  9 104   ABCO      172.   4.87    20   0.0601    12          121 104-12-121 
## 10 104   ABCO      163.   4.57    19   0.0659    12          121 104-12-121 
## # ... with 28,574 more rows

test2 <- pivot_wider(test, names_from = "Years", values_from = "dia.cm", id_cols = "ID")
test2 %>% 
  arrange(ID)

## # A tibble: 14,688 x 3
##    ID           `20`  `19`
##    <chr>       <dbl> <dbl>
##  1 104-10-172   4.87  4.57
##  2 104-100-183  4.87  4.57
##  3 104-100-29   4.87  4.57
##  4 104-11-15    4.87  4.57
##  5 104-12-121   4.87  4.57
##  6 104-12-38    4.87  4.57
##  7 104-12-92    4.87  4.57
##  8 104-13-133   4.87  4.57
##  9 104-13-178   4.87  4.57
## 10 104-13-180   4.87  4.57
## # ... with 14,678 more rows
…
summary_emerge_prop <- summary_emerge %>% 
  ungroup() %>% 
  group_by(rep, Species) %>% 
  mutate(initial_n = max(total)) %>% 
  ungroup() %>% 
  mutate(prop_total = total/initial_n, prop_emerged = total_emergents/initial_n)
  
summary_emerge_prop 

## # A tibble: 4,000 x 9
##    Years Species   rep new_emergents total total_emergents initial_n prop_total
##    <dbl> <fct>   <int>         <dbl> <int>           <dbl>     <int>      <dbl>
##  1     9 ABCO        1            18   122              18       122          1
##  2     9 ABCO        2            14   128              14       128          1
##  3     9 ABCO        3            13   129              13       129          1
##  4     9 ABCO        4            17   125              17       125          1
##  5     9 ABCO        5             9   132               9       132          1
##  6     9 ABCO        6            14   149              14       149          1
##  7     9 ABCO        7            12   118              12       118          1
##  8     9 ABCO        8            22   128              22       128          1
##  9     9 ABCO        9            10   131              10       131          1
## 10     9 ABCO       10            12   136              12       136          1
## # ... with 3,990 more rows, and 1 more variable: prop_emerged <dbl>
…
Calculate how many surviving trees are left at last year both emerged and non-emerged

summary_count <- dfsimallreps %>% 
  group_by(rep, Species) %>% 
  filter(Years == max(Years)) %>% 
  summarize(total = n(), emerged = sum(emerged)) 

summary_count <- pivot_longer(summary_count, cols = c(3,4), names_to = "stat")

summary_count

## # A tibble: 400 x 4
## # Groups:   rep [100]
##      rep Species stat    value
##    <int> <fct>   <chr>   <dbl>
##  1     1 ABCO    total      38
##  2     1 ABCO    emerged    37
##  3     1 PIPO    total      34
##  4     1 PIPO    emerged    33
##  5     2 ABCO    total      40
##  6     2 ABCO    emerged    40
##  7     2 PIPO    total      21
##  8     2 PIPO    emerged    21
##  9     3 ABCO    total      45
## 10     3 ABCO    emerged    44
## # ... with 390 more rows
…
summary_prop <- summary_prop %>% 
  ungroup() %>% 
  group_by(rep, initial_n, Species) %>% 
  filter(Years== max(Years)) %>% 
  summarize(total = n(), emerged = sum(emerged)) %>% 
  mutate(prop_total = total/initial_n, prop_emerged = emerged/initial_n) 

summary_prop <- pivot_longer(summary_prop, cols = c(4:7), names_to = "stat")
summary_prop

## # A tibble: 800 x 5
## # Groups:   rep, initial_n [200]
##      rep initial_n Species stat          value
##    <int>     <int> <fct>   <chr>         <dbl>
##  1     1        76 PIPO    total        34    
##  2     1        76 PIPO    emerged      33    
##  3     1        76 PIPO    prop_total    0.447
##  4     1        76 PIPO    prop_emerged  0.434
##  5     1       122 ABCO    total        38    
##  6     1       122 ABCO    emerged      37    
##  7     1       122 ABCO    prop_total    0.311
##  8     1       122 ABCO    prop_emerged  0.303
##  9     2        70 PIPO    total        21    
## 10     2        70 PIPO    emerged      21    
## # ... with 790 more rows
…
