simulations_plot
…
 summary_emerge %>% filter(Years %in% c(25,26)) %>% filter(Species == "ABCO") %>% 
  group_by(Years) %>% 
  count()

## # A tibble: 2 x 2
## # Groups:   Years [2]
##   Years     n
##   <dbl> <int>
## 1    25   993
## 2    26   993

 summary_emerge %>% filter(Years %in% c(25,26)) %>% filter(Species == "ABCO") %>% group_by(rep) %>% mutate(diff = diff(prop_emerged)) %>% arrange(desc(diff))

## # A tibble: 1,986 x 8
## # Groups:   rep [993]
##    Years Species   rep total_emergents total initial_n prop_emerged   diff
##    <dbl> <fct>   <int>           <dbl> <int>     <int>        <dbl>  <dbl>
##  1    25 ABCO      742              80   110       122        0.656 0.115 
##  2    26 ABCO      742              94   110       122        0.770 0.115 
##  3    25 ABCO      401              60   110       135        0.444 0.111 
##  4    26 ABCO      401              75   110       135        0.556 0.111 
##  5    25 ABCO      259              84   116       135        0.622 0.104 
##  6    26 ABCO      259              98   116       135        0.726 0.104 
##  7    25 ABCO      562              69   101       127        0.543 0.102 
##  8    26 ABCO      562              82    99       127        0.646 0.102 
##  9    25 ABCO      736              78   115       132        0.591 0.0985
## 10    26 ABCO      736              91   113       132        0.689 0.0985
## # ... with 1,976 more rows
…
