simulations_plot
…
summary_prop <- summary_prop %>% 
  ungroup() %>% 
  group_by(rep, initial_n, Species) %>% 
  filter(Years== max(Years)) %>% 
  summarize(emerged = sum(emerged)) %>% 
  mutate(prop_emerged = emerged/initial_n) 

summary_prop

## # A tibble: 200 x 5
## # Groups:   rep, initial_n [200]
##      rep initial_n Species emerged prop_emerged
##    <int>     <int> <fct>     <dbl>        <dbl>
##  1     1        67 PIPO         48        0.716
##  2     1       127 ABCO         82        0.646
##  3     2        80 PIPO         70        0.875
##  4     2       120 ABCO         74        0.617
##  5     3        63 PIPO         51        0.810
##  6     3       131 ABCO         82        0.626
##  7     4        72 PIPO         60        0.833
##  8     4       125 ABCO         77        0.616
##  9     5        69 PIPO         62        0.899
## 10     5       125 ABCO         55        0.44 
## # ... with 190 more rows
…
