simulations_plot
…
summary_emerge %>% filter(Years %in% c(25,26)) %>% filter(Species == "ABCO") %>% 
  group_by(Years) %>% 
  count()

## # A tibble: 2 x 2
## # Groups:   Years [2]
##   Years     n
##   <dbl> <int>
## 1    25   100
## 2    26   100

summary_emerge %>% filter(Years %in% c(25,26)) %>% filter(Species == "ABCO") %>% group_by(rep) %>% mutate(diff = diff(prop_emerged)) %>% arrange(desc(diff))

## # A tibble: 200 x 8
## # Groups:   rep [100]
##    Years Species   rep total_emergents total initial_n prop_emerged   diff
##    <dbl> <fct>   <int>           <dbl> <int>     <int>        <dbl>  <dbl>
##  1    25 ABCO       72              38    56        65        0.585 0.108 
##  2    26 ABCO       72              45    55        65        0.692 0.108 
##  3    25 ABCO        9              35    50        64        0.547 0.0781
##  4    26 ABCO        9              40    50        64        0.625 0.0781
##  5    25 ABCO       78              41    60        65        0.631 0.0769
##  6    26 ABCO       78              46    60        65        0.708 0.0769
##  7    25 ABCO       10              41    59        65        0.631 0.0615
##  8    25 ABCO       14              43    56        65        0.662 0.0615
##  9    25 ABCO       30              35    55        65        0.538 0.0615
## 10    25 ABCO       43              43    58        65        0.662 0.0615
## # ... with 190 more rows
…
