simulations_plot
…
summary_prop <- summary_prop %>% 
  ungroup() %>% 
  group_by(rep, initial_n, Species) %>% 
  filter(Years== max(Years)) %>% 
  summarize(emerged = sum(emerged)) %>% 
  mutate(prop_emerged = emerged/initial_n) 

summary_prop

## # A tibble: 200 x 5
## # Groups:   rep, initial_n [200]
##      rep initial_n Species emerged prop_emerged
##    <int>     <int> <fct>     <dbl>        <dbl>
##  1     1       189 PIPO        153        0.810
##  2     1       405 ABCO        401        0.990
##  3     2       223 PIPO        197        0.883
##  4     2       372 ABCO        232        0.624
##  5     3       203 PIPO        157        0.773
##  6     3       386 ABCO        256        0.663
##  7     4       223 PIPO        206        0.924
##  8     4       367 ABCO        126        0.343
##  9     5       208 PIPO        197        0.947
## 10     5       375 ABCO        114        0.304
## # ... with 190 more rows
…
