simulations_plot
…
Calculate mean and SD years to end of simulation

name <- "Simulation1_2020-10-30_1000_empirical_welch_empiricalcoef_empiricalgrowth_empiricalindex"
df_filename <- paste("~/Ch3_Simulation_Results/", name, ".Rdata", sep = "")
load(df_filename)
strt <- Sys.time()

setwd("~/../Shrubs-Seedlings/code/Simulations/")

Find emerged trees at 8 years (first simulation year)

dfsimallreps %>% filter(Years == 8) %>% filter(emerged ==1) %>% dplyr::select(Sdlg, Species, ShrubSpp03, Ht1.3, Ht_cm1, emerged) %>% 
  distinct()

## # A tibble: 124 x 6
##    Sdlg  Species ShrubSpp03 Ht1.3 Ht_cm1 emerged
##    <fct> <fct>   <fct>      <dbl>  <dbl>   <dbl>
##  1 48    ABCO    Other       43.9   68.2       1
##  2 99    ABCO    CEIN         1.1   30.9       1
##  3 220   PIPO    CEIN        50     95.9       1
##  4 259   PIPO    CEIN         1.1   25.5       1
##  5 214   PIPO    CEIN        30     51.4       1
##  6 221   ABCO    CEIN         1.1   71.6       1
##  7 215   PIPO    CEIN        50     75.7       1
##  8 218   ABCO    CEIN         1.1   56.5       1
##  9 220   PIPO    CEIN        40     95.9       1
## 10 95    ABCO    CEIN        40     57.3       1
## # ... with 114 more rows
…
## `summarise()` regrouping output by 'Years', 'Species' (override with `.groups` argument)

summary_emerge

## # A tibble: 101,796 x 8
##    Years Species   rep total_emergents total initial_n prop_emerged density_ha
##    <dbl> <fct>   <int>           <dbl> <int>     <int>        <dbl>      <dbl>
##  1     8 ABCO        1               3    59        59       0.0508       7.35
##  2     8 ABCO        2               3    59        59       0.0508       7.35
##  3     8 ABCO        3               5    59        59       0.0847      12.3 
##  4     8 ABCO        4               2    59        59       0.0339       4.90
##  5     8 ABCO        5               5    59        59       0.0847      12.3 
##  6     8 ABCO        6               2    59        59       0.0339       4.90
##  7     8 ABCO        7               2    59        59       0.0339       4.90
##  8     8 ABCO        8               5    59        59       0.0847      12.3 
##  9     8 ABCO        9               3    59        59       0.0508       7.35
## 10     8 ABCO       10               4    59        59       0.0678       9.80
## # ... with 101,786 more rows
…
