simulations_plot
…
summary_emerge %>% filter(Years %in% c(25,26)) %>% filter(Species == "ABCO") %>% 
  group_by(Years) %>% 
  count()

## # A tibble: 2 x 2
## # Groups:   Years [2]
##   Years     n
##   <dbl> <int>
## 1    25   999
## 2    26   999

summary_emerge %>% filter(Years %in% c(25,26)) %>% filter(Species == "ABCO") %>% group_by(rep) %>% mutate(diff = diff(prop_emerged)) %>% arrange(desc(diff))

## # A tibble: 1,998 x 8
## # Groups:   rep [999]
##    Years Species   rep total_emergents total initial_n prop_emerged  diff
##    <dbl> <fct>   <int>           <dbl> <int>     <int>        <dbl> <dbl>
##  1    25 ABCO      669              85   117       134        0.634 0.119
##  2    26 ABCO      669             101   116       134        0.754 0.119
##  3    25 ABCO      158              79   112       126        0.627 0.119
##  4    26 ABCO      158              94   112       126        0.746 0.119
##  5    25 ABCO      894              85   113       121        0.702 0.116
##  6    26 ABCO      894              99   112       121        0.818 0.116
##  7    25 ABCO      309              80   109       127        0.630 0.110
##  8    25 ABCO      682              81   113       127        0.638 0.110
##  9    26 ABCO      309              94   108       127        0.740 0.110
## 10    26 ABCO      682              95   111       127        0.748 0.110
## # ... with 1,988 more rows
…
