simulations_plot
…
summary_prop <- summary_prop %>% 
  ungroup() %>% 
  group_by(rep, initial_n, Species) %>% 
  filter(Years== max(Years)) %>% 
  summarize(emerged = sum(emerged)) %>% 
  mutate(prop_emerged = emerged/initial_n) 

summary_prop

## # A tibble: 2,000 x 5
## # Groups:   rep, initial_n [2,000]
##      rep initial_n Species emerged prop_emerged
##    <int>     <int> <fct>     <dbl>        <dbl>
##  1     1       137 PIPO        120        0.876
##  2     1       261 ABCO        177        0.678
##  3     2       115 PIPO         74        0.643
##  4     2       284 ABCO        220        0.775
##  5     3       129 PIPO         89        0.690
##  6     3       265 ABCO        129        0.487
##  7     4       124 PIPO        105        0.847
##  8     4       266 ABCO        149        0.560
##  9     5       128 PIPO         84        0.656
## 10     5       261 ABCO        213        0.816
## # ... with 1,990 more rows
…
