Growth_mort
…
Plot the relationships between variables inputting the diameter growth equations to compare them to what I saw in the dendro analysis

test <- dfsimallreps %>% 
  filter(Years %in% c(19,20)) %>% 
  dplyr::select(Sdlg, Species, Ht_cm1, dia.cm, Years, pred_exp, rep, ID_withinrep) %>% 
  tbl_df() %>% 
  arrange(Sdlg)
test

## # A tibble: 28,786 x 8
##    Sdlg  Species Ht_cm1 dia.cm Years pred_exp   rep ID_withinrep
##    <chr> <fct>    <dbl>  <dbl> <dbl>    <dbl> <int>        <int>
##  1 104   ABCO      172.   4.87    20   0.0601     1            1
##  2 104   ABCO      172.   4.87    20   0.0601     1           76
##  3 104   ABCO      172.   4.87    20   0.0601     1          189
##  4 104   ABCO      163.   4.57    19   0.0659     1            1
##  5 104   ABCO      163.   4.57    19   0.0659     1           76
##  6 104   ABCO      163.   4.57    19   0.0659     1          189
##  7 104   ABCO      172.   4.87    20   0.0601     2          166
##  8 104   ABCO      163.   4.57    19   0.0659     2          166
##  9 104   ABCO      172.   4.87    20   0.0601     4           21
## 10 104   ABCO      163.   4.57    19   0.0659     4           21
## # ... with 28,776 more rows

test <- test %>% 
  mutate(ID = paste(Sdlg, rep, ID_withinrep, sep = "-"))
test %>% 
  arrange(ID)

## # A tibble: 28,786 x 9
##    Sdlg  Species Ht_cm1 dia.cm Years pred_exp   rep ID_withinrep ID        
##    <chr> <fct>    <dbl>  <dbl> <dbl>    <dbl> <int>        <int> <chr>     
##  1 104   ABCO      172.   4.87    20   0.0601     1            1 104-1-1   
##  2 104   ABCO      163.   4.57    19   0.0659     1            1 104-1-1   
##  3 104   ABCO      172.   4.87    20   0.0601     1          189 104-1-189 
##  4 104   ABCO      163.   4.57    19   0.0659     1          189 104-1-189 
##  5 104   ABCO      172.   4.87    20   0.0601     1           76 104-1-76  
##  6 104   ABCO      163.   4.57    19   0.0659     1           76 104-1-76  
##  7 104   ABCO      172.   4.87    20   0.0601    10          131 104-10-131
##  8 104   ABCO      163.   4.57    19   0.0659    10          131 104-10-131
##  9 104   ABCO      172.   4.87    20   0.0601    10          180 104-10-180
## 10 104   ABCO      163.   4.57    19   0.0659    10          180 104-10-180
## # ... with 28,776 more rows

test2 <- pivot_wider(test, names_from = "Years", values_from = "dia.cm", id_cols = "ID")
test2 %>% 
  arrange(ID)

## # A tibble: 14,763 x 3
##    ID           `20`  `19`
##    <chr>       <dbl> <dbl>
##  1 104-1-1      4.87  4.57
##  2 104-1-189    4.87  4.57
##  3 104-1-76     4.87  4.57
##  4 104-10-131   4.87  4.57
##  5 104-10-180   4.87  4.57
##  6 104-10-30    4.87  4.57
##  7 104-100-155  4.87  4.57
##  8 104-100-18  NA     4.57
##  9 104-100-49   4.87  4.57
## 10 104-100-82   4.87  4.57
## # ... with 14,753 more rows
…
summary_emerge_prop <- summary_emerge %>% 
  ungroup() %>% 
  group_by(rep, Species) %>% 
  mutate(initial_n = max(total)) %>% 
  ungroup() %>% 
  mutate(prop_total = total/initial_n, prop_emerged = total_emergents/initial_n)
  
summary_emerge_prop 

## # A tibble: 4,000 x 9
##    Years Species   rep new_emergents total total_emergents initial_n prop_total
##    <dbl> <fct>   <int>         <dbl> <int>           <dbl>     <int>      <dbl>
##  1     9 ABCO        1            22   135             109       135          1
##  2     9 ABCO        2            13   132              98       132          1
##  3     9 ABCO        3            15   124              97       124          1
##  4     9 ABCO        4            10   129              95       129          1
##  5     9 ABCO        5             8   126              95       126          1
##  6     9 ABCO        6            14   117              81       117          1
##  7     9 ABCO        7            16   131             100       131          1
##  8     9 ABCO        8             8   129              96       129          1
##  9     9 ABCO        9            18   128             100       128          1
## 10     9 ABCO       10            12   115              90       115          1
## # ... with 3,990 more rows, and 1 more variable: prop_emerged <dbl>
…
Calculate how many surviving trees are left at last year both emerged and non-emerged

summary_count <- dfsimallreps %>% 
  group_by(rep, Species) %>% 
  filter(Years == max(Years)) %>% 
  summarize(total = n(), emerged = sum(emerged)) 

summary_count <- pivot_longer(summary_count, cols = c(3,4), names_to = "stat")

summary_count

## # A tibble: 400 x 4
## # Groups:   rep [100]
##      rep Species stat    value
##    <int> <fct>   <chr>   <dbl>
##  1     1 ABCO    total      51
##  2     1 ABCO    emerged    50
##  3     1 PIPO    total      16
##  4     1 PIPO    emerged    16
##  5     2 ABCO    total      51
##  6     2 ABCO    emerged    49
##  7     2 PIPO    total      19
##  8     2 PIPO    emerged    19
##  9     3 ABCO    total      37
## 10     3 ABCO    emerged    37
## # ... with 390 more rows
…
summary_prop <- summary_prop %>% 
  ungroup() %>% 
  group_by(rep, initial_n, Species) %>% 
  filter(Years== max(Years)) %>% 
  summarize(total = n(), emerged = sum(emerged)) %>% 
  mutate(prop_total = total/initial_n, prop_emerged = emerged/initial_n) 

summary_prop <- pivot_longer(summary_prop, cols = c(4:7), names_to = "stat")
summary_prop

## # A tibble: 800 x 5
## # Groups:   rep, initial_n [200]
##      rep initial_n Species stat          value
##    <int>     <int> <fct>   <chr>         <dbl>
##  1     1        62 PIPO    total        16    
##  2     1        62 PIPO    emerged      16    
##  3     1        62 PIPO    prop_total    0.258
##  4     1        62 PIPO    prop_emerged  0.258
##  5     1       135 ABCO    total        51    
##  6     1       135 ABCO    emerged      50    
##  7     1       135 ABCO    prop_total    0.378
##  8     1       135 ABCO    prop_emerged  0.370
##  9     2        63 PIPO    total        19    
## 10     2        63 PIPO    emerged      19    
## # ... with 790 more rows
…
