simulations_plot
…
summary_prop <- summary_prop %>% 
  ungroup() %>% 
  group_by(rep, initial_n, Species) %>% 
  filter(Years== max(Years)) %>% 
  summarize(emerged = sum(emerged)) %>% 
  mutate(prop_emerged = emerged/initial_n) 

summary_prop

## # A tibble: 100 x 5
## # Groups:   rep, initial_n [100]
##      rep initial_n Species emerged prop_emerged
##    <int>     <int> <fct>     <dbl>        <dbl>
##  1     1       186 PIPO        134        0.720
##  2     1       396 ABCO        235        0.593
##  3     2       250 PIPO        203        0.812
##  4     2       343 ABCO        212        0.618
##  5     3       201 PIPO        156        0.776
##  6     3       390 ABCO        254        0.651
##  7     4       198 PIPO        162        0.818
##  8     4       396 ABCO        249        0.629
##  9     5       182 PIPO        143        0.786
## 10     5       403 ABCO        217        0.538
## # ... with 90 more rows
…
