Growth_mort
…
summary_prop <- summary_prop %>% 
  ungroup() %>% 
  group_by(rep, initial_n, Species) %>% 
  filter(Years== max(Years)) %>% 
  summarize(emerged = sum(emerged)) %>% 
  mutate(prop_emerged = emerged/initial_n) 

summary_prop

## # A tibble: 100 x 5
## # Groups:   rep, initial_n [100]
##      rep initial_n Species emerged prop_emerged
##    <int>     <int> <fct>     <dbl>        <dbl>
##  1     1        53 PIPO         40        0.755
##  2     1       144 ABCO         97        0.674
##  3     2        63 PIPO         49        0.778
##  4     2       135 ABCO         75        0.556
##  5     3        62 PIPO         54        0.871
##  6     3       136 ABCO         79        0.581
##  7     4        88 PIPO         74        0.841
##  8     4       108 ABCO         69        0.639
##  9     5        71 PIPO         51        0.718
## 10     5       124 ABCO         77        0.621
## # ... with 90 more rows
…
