simulations_plot
…
summary_prop <- summary_prop %>% 
  ungroup() %>% 
  group_by(rep, initial_n, Species) %>% 
  filter(Years== max(Years)) %>% 
  summarize(emerged = sum(emerged)) %>% 
  mutate(prop_emerged = emerged/initial_n) 

summary_prop

## # A tibble: 188 x 5
## # Groups:   rep, initial_n [188]
##      rep initial_n Species emerged prop_emerged
##    <int>     <int> <fct>     <dbl>        <dbl>
##  1     1       182 PIPO        158       0.868 
##  2     1       273 ABCO         36       0.132 
##  3     2       218 PIPO        204       0.936 
##  4     2       289 ABCO        236       0.817 
##  5     3       137 PIPO         76       0.555 
##  6     3       325 ABCO        192       0.591 
##  7     4       179 PIPO        130       0.726 
##  8     4       267 ABCO          6       0.0225
##  9     5       206 PIPO        192       0.932 
## 10     5       309 ABCO        134       0.434 
## # ... with 178 more rows
…
