Clean_vert_growth
…
df <- df %>% 
  mutate(Ht2015.meas2016 = ifelse(Sdlg ==6, 9, Ht2015.meas2016))

For those seedlings, find average 2016 growing season apical growth relative to 2015 growth

find_apical_growth <- df %>% 
  filter(!is.na(Ht2015.meas2016)) %>% 
  mutate(apical_growth_2016 = 
           Ht16_meas2016.cm - LastYearGrth.cm - Ht2015.meas2016) %>% 
  dplyr::select(Sdlg, Species, Ht16_meas2016.cm, LastYearGrth.cm, Ht2015.meas2016, apical_growth_2016) %>% 
  mutate(apical_ratio = apical_growth_2016/LastYearGrth.cm) %>% 
  distinct()
find_apical_growth

## # A tibble: 126 x 7
##    Sdlg  Species Ht16_meas2016.cm LastYearGrth.cm Ht2015.meas2016
##    <chr> <chr>              <dbl>           <dbl>           <dbl>
##  1 6     ABCO                9.45            1.92               9
##  2 275   ABCO               28               0.8               19
##  3 276   ABCO               14               1.29              10
##  4 277   PIPO               84               3.43              73
##  5 278   PIPO               98               3.93              82
##  6 279   PIPO              115              11.1               92
##  7 280   PIPO               70               2.35              61
##  8 281   ABCO               23               4.15              13
##  9 282   ABCO               50               8.29              35
## 10 283   ABCO               34               3.87              27
## # ... with 116 more rows, and 2 more variables: apical_growth_2016 <dbl>,
## #   apical_ratio <dbl>
…
save(df, file = "../../compiled_data/fire_footprints/df_vert_wide.Rdata")

Add 2015 heights measured in 2016 for trees still missing 2015 height

df <- df %>% 
  mutate(Ht2015.cm_spring = ifelse(is.na(Ht2015.cm_spring_from2017), Ht2015.meas2016, Ht2015.cm_spring_from2017))

Check

df %>% 
  dplyr::select(Ht2017.cm.fall, Growth_17, Growth_16, Growth_15, Ht2015.cm_spring_from2017, Ht2015.meas2016, Ht2015.cm_spring) %>% 
  arrange(desc(Ht2015.meas2016))

## # A tibble: 216 x 7
##    Ht2017.cm.fall Growth_17 Growth_16 Growth_15 Ht2015.cm_sprin~ Ht2015.meas2016
##             <dbl>     <dbl>     <dbl>     <dbl>            <dbl>           <dbl>
##  1            199      13.5      19.9      11.6             154              157
##  2            276      50.5      46.5      25.5             154.             155
##  3            238      26        31        24               157              148
##  4             NA      NA        NA        NA                NA              125
##  5            222      19.1      43.4      38.5             121              120
##  6            165      15        19        11               120              115
##  7            216      15.3      38.8      37               125.             113
##  8            167      13        20.6      14.8             119.             105
##  9            156      12.5      21.4      11.8             110.             105
## 10            115      NA        NA        10.1              NA              104
## # ... with 206 more rows, and 1 more variable: Ht2015.cm_spring <dbl>
…
## # A tibble: 2 x 2
##   Species `n()`
##   <chr>   <int>
## 1 ABCO       19
## 2 PIPO        3

Find seedlings this didnt work for

df %>% 
  filter(is.na(Ht2015.cm_spring)) %>% 
  dplyr::select(Sdlg, FirePatch, LastYearGrth.cm, Ht16_meas2016.cm, Ht2017.cm.fall, Ht2015.meas2016, Growth_17, Growth_16, Growth_15, Ht2015.cm_spring)

## # A tibble: 22 x 10
##    Sdlg  FirePatch LastYearGrth.cm Ht16_meas2016.cm Ht2017.cm.fall
##    <chr> <chr>               <dbl>            <dbl>          <dbl>
##  1 72    AMRC-NW              3.94             23               25
##  2 82    AMRC-2              11.8              42               NA
##  3 84    AMRC-2               8.12             95               NA
##  4 91    AMRC-2               3.96             20               NA
##  5 92    AMRC-2               3.42             11               NA
##  6 93    AMRC-2               2.27             18               NA
##  7 106   AMRC-2              15.3              68               NA
##  8 107   AMRC-2              15.2              46               NA
##  9 123   WRTS-1               8                95               NA
## 10 135   WRTS-1               2.48             18.2             NA
## # ... with 12 more rows, and 5 more variables: Ht2015.meas2016 <dbl>,
## #   Growth_17 <dbl>, Growth_16 <dbl>, Growth_15 <dbl>, Ht2015.cm_spring <dbl>
…
For those seedlings, find 2015 growth by creating a regression model

Find average 2016 growing season apical growth for the seedlings with data on it

find_apical_growth <- df %>%
  filter(!is.na(Ht2015.meas2016)) %>%
  mutate(apical_growth_2016 =
           Ht16_meas2016.cm - LastYearGrth.cm - Ht2015.meas2016) %>%
  dplyr::select(Sdlg, Species, Ht16_meas2016.cm, LastYearGrth.cm, Ht2015.meas2016, apical_growth_2016, Date1_2016) %>%
  mutate(apical_ratio = apical_growth_2016/LastYearGrth.cm) %>%
  distinct()
find_apical_growth

## # A tibble: 126 x 8
##    Sdlg  Species Ht16_meas2016.cm LastYearGrth.cm Ht2015.meas2016
##    <chr> <chr>              <dbl>           <dbl>           <dbl>
##  1 6     ABCO                9.45            1.92               9
##  2 275   ABCO               28               0.8               19
##  3 276   ABCO               14               1.29              10
##  4 277   PIPO               84               3.43              73
##  5 278   PIPO               98               3.93              82
##  6 279   PIPO              115              11.1               92
##  7 280   PIPO               70               2.35              61
##  8 281   ABCO               23               4.15              13
##  9 282   ABCO               50               8.29              35
## 10 283   ABCO               34               3.87              27
## # ... with 116 more rows, and 3 more variables: apical_growth_2016 <dbl>,
## #   Date1_2016 <date>, apical_ratio <dbl>
…
Then use this value for the seedlings that dont have 2015 height recorded

df <- df %>%
   mutate(Ht2015.calc2016 =
           ifelse(is.na(Ht2017.cm.fall) &
                    is.na(Ht2015.meas2016),
                  Ht16_meas2016.cm - LastYearGrth.cm - apical_growth_pred,
                  Ht2015.meas2016)) 

df %>%
  filter(is.na(Ht2017.cm.fall)) %>%
  dplyr::select(Sdlg, Ht16_meas2016.cm, LastYearGrth.cm, Ht2015.meas2016, Ht2015.calc2016)

## # A tibble: 32 x 5
##    Sdlg  Ht16_meas2016.cm LastYearGrth.cm Ht2015.meas2016 Ht2015.calc2016
##    <chr>            <dbl>           <dbl>           <dbl>           <dbl>
##  1 58                  30            3.03              25            25  
##  2 80                  49            3.93              31            31  
##  3 81                  57           11.4               54            54  
##  4 82                  42           11.8               NA            22.3
##  5 83                  58            4                 40            40  
##  6 84                  95            8.12              NA            75.5
##  7 85                  68            5.86              60            60  
##  8 86                  45            3.57              33            33  
##  9 87                  72           10.7               61            61  
## 10 88                  47           12.6               28            28  
## # ... with 22 more rows
…
Create data frame with one row per growth measurement

df <- tbl_df(df)
df <- df %>% 
  rename(`2017` = Growth_17, `2016` = Growth_16, `2015` = Growth_15)
df <- gather(df, "Year", "VertGrowth_cm",c(`2017`, `2016`, `2015`))
df$Year <- as.factor(df$Year)

Check

df %>% dplyr::select(Sdlg, Year, VertGrowth_cm)

## # A tibble: 648 x 3
##    Sdlg  Year  VertGrowth_cm
##    <chr> <fct>         <dbl>
##  1 2     2017           14.5
##  2 4     2017            3.2
##  3 5     2017           12.5
##  4 6     2017           NA  
##  5 8     2017           11.5
##  6 9     2017           11.5
##  7 10    2017           14  
##  8 11    2017            1.8
##  9 12    2017           17.2
## 10 13    2017            0.6
## # ... with 638 more rows
…
Take out 2016 and 2017 vertical growth measurements for trees that were not found

df <- df %>% 
  filter(!(Status %in% c("could not find","not found", "eaten", "herbicide","herbicided") & Year %in% c("2016", "2017")))

Check out NA values and delete years that broke off

df %>% 
  filter(is.na(VertGrowth_cm)) %>% 
  dplyr::select(Sdlg, Year, VertGrowth_cm, Status,  Note1_2016, Note2_2016, Notes2017) %>% 
  arrange(Sdlg)

## # A tibble: 54 x 7
##    Sdlg  Year  VertGrowth_cm Status  Note1_2016       Note2_2016  Notes2017     
##    <chr> <fct>         <dbl> <chr>   <chr>            <chr>       <chr>         
##  1 100   2015             NA not fo~ ""               ""          <NA>          
##  2 103   2015             NA not fo~ ""               ""          <NA>          
##  3 106   2015             NA not fo~ ""               "masticati~ <NA>          
##  4 107   2015             NA not fo~ ""               "masticati~ <NA>          
##  5 123   2015             NA could ~ "slope and aspe~ ""          <NA>          
##  6 131   2017             NA DONE    ""               ""          leader broke ~
##  7 131   2016             NA DONE    ""               ""          leader broke ~
##  8 132   2017             NA Actual~ ""               ""          <NA>          
##  9 132   2016             NA Actual~ ""               ""          <NA>          
## 10 132   2015             NA Actual~ ""               ""          <NA>          
## # ... with 44 more rows
…
Calculate relative vertical growth

df %>% dplyr::select(Sdlg, Year, Ht_cm, VertGrowth_cm) %>% arrange(Sdlg)

## # A tibble: 565 x 4
##    Sdlg  Year  Ht_cm VertGrowth_cm
##    <chr> <fct> <dbl>         <dbl>
##  1 10    2017  171            14  
##  2 10    2016  146            25  
##  3 10    2015  123.           23.3
##  4 100   2015   75            20.6
##  5 103   2015   50            29.6
##  6 104   2017   66.1           3.9
##  7 104   2016   52.6          13.5
##  8 104   2015   41.8          10.8
##  9 105   2017   26.3           5.7
## 10 105   2016   24.2           2.1
## # ... with 555 more rows

df <- df %>% 
  rename(Ht_cm1 = Ht_cm) %>% 
  mutate(Ht_cm2 = Ht_cm1+VertGrowth_cm) %>% 
  #mutate(VertGrowth_Rel = log(Ht_cm2) - log(Ht_cm1))
  mutate(VertGrowth_Rel = (Ht_cm2 - Ht_cm1)/Ht_cm1) %>% 
  mutate(VertGrowth_Rel = log(VertGrowth_Rel))
df %>% dplyr::select(Sdlg, Year, Ht_cm1, Ht_cm2, VertGrowth_cm, VertGrowth_Rel) %>% arrange(Sdlg)

## # A tibble: 565 x 6
##    Sdlg  Year  Ht_cm1 Ht_cm2 VertGrowth_cm VertGrowth_Rel
##    <chr> <fct>  <dbl>  <dbl>         <dbl>          <dbl>
##  1 10    2017   171    185            14           -2.50 
##  2 10    2016   146    171            25           -1.76 
##  3 10    2015   123.   146            23.3         -1.66 
##  4 100   2015    75     95.6          20.6         -1.29 
##  5 103   2015    50     79.6          29.6         -0.525
##  6 104   2017    66.1   70             3.9         -2.83 
##  7 104   2016    52.6   66.1          13.5         -1.36 
##  8 104   2015    41.8   52.6          10.8         -1.35 
##  9 105   2017    26.3   32             5.7         -1.53 
## 10 105   2016    24.2   26.3           2.1         -2.44 
## # ... with 555 more rows
…
