DIFN analysis
…
## Warning: Factor `Fire` contains implicit NA, consider using
## `forcats::fct_explicit_na`

## Warning: Factor `FirePatch` contains implicit NA, consider using
## `forcats::fct_explicit_na`

## Warning: Factor `Fire` contains implicit NA, consider using
## `forcats::fct_explicit_na`

## Warning: Factor `FirePatch` contains implicit NA, consider using
## `forcats::fct_explicit_na`

## # A tibble: 283 x 7
## # Groups:   Fire, FirePatch, DIFN.all, Cov1.3, Ht1.3 [272]
##    Fire  FirePatch DIFN.all Cov1.3 Ht1.3 Sdlg  Ht.cm
##    <fct> <fct>        <dbl>  <dbl> <dbl> <chr> <dbl>
##  1 AMCR  AMCR-NW      0        160   7.5 36     32  
##  2 FRDS  FRDS-N       0.028    710  64.4 126    37  
##  3 CLVD  CLVD-N       0.031   1370 105.  2     143  
##  4 AMCR  AMCR-NE      0.042    990  40   51     51  
##  5 AMCR  AMCR-2       0.047   1240  66.9 95     61  
##  6 AMCR  AMCR-2       0.047   1240  66.9 96     61  
##  7 AMCR  AMCR-2       0.049   1260  88.4 98     55  
##  8 AMCR  AMCR-2       0.058    840  48.2 81     57  
##  9 AMCR  AMCR-2       0.061   1190  67.7 105    28  
## 10 AMCR  AMCR-2       0.063   1050  59.3 80     45.5
## # ... with 273 more rows
…
