fir functional group vertical growth - fire footprints
…
MyData$pred_simple <- predict(LM2, level = 0,newdata = MyData)

Summary plot

MyData_summary_simple <- MyData %>% 
  group_by(shrubarea2) %>% 
  mutate(pred_simple = mean(pred_simple))
MyData_summary_simple

## # A tibble: 1,200,000 x 11
## # Groups:   shrubarea2 [100]
##    Fire  Year  shrubarea2 Ht_cm Species ShrG1 Cov1.2 Ht_norm
##    <fct> <fct>      <dbl> <dbl> <fct>   <fct>  <dbl>   <dbl>
##  1 CLVD  2017           0    11 PIPO    Arcto      0   -1.57
##  2 AMCR  2017           0    11 PIPO    Arcto      0   -1.57
##  3 WRTS  2017           0    11 PIPO    Arcto      0   -1.57
##  4 STAR  2017           0    11 PIPO    Arcto      0   -1.57
##  5 CLVD  2016           0    11 PIPO    Arcto      0   -1.57
##  6 AMCR  2016           0    11 PIPO    Arcto      0   -1.57
##  7 WRTS  2016           0    11 PIPO    Arcto      0   -1.57
##  8 STAR  2016           0    11 PIPO    Arcto      0   -1.57
##  9 CLVD  2015           0    11 PIPO    Arcto      0   -1.57
## 10 AMCR  2015           0    11 PIPO    Arcto      0   -1.57
## # ... with 1,199,990 more rows, and 3 more variables:
## #   shrubarea2_sqrt_norm <dbl>, cov1.2_norm <dbl>, pred_simple <dbl>
…
