Fir diameter growth analysis, all years - fire footprints
…
summary(df$DiaGrowth)

##    Min. 1st Qu.  Median    Mean 3rd Qu.    Max.    NA's 
##  -8.650  -1.000   0.650   1.006   2.150  19.750      25

df %>% filter(is.na(DiaGrowth))

## # A tibble: 25 x 60
##    Sdlg  Species Fire  FirePatch Elevation Slope.Deg Aspect.deg
##    <chr> <fct>   <fct> <fct>         <dbl>     <dbl>      <dbl>
##  1 58    ABCO    AMCR  AMCR-NE        1966        17        188
##  2 80    ABCO    AMCR  AMCR-2         1701        15        290
##  3 80    ABCO    AMCR  AMCR-2         1701        15        290
##  4 81    ABCO    AMCR  AMCR-2         1701        15        290
##  5 81    ABCO    AMCR  AMCR-2         1701        15        290
##  6 82    ABCO    AMCR  AMCR-2         1701        15        290
##  7 83    ABCO    AMCR  AMCR-2         1701        14        290
##  8 83    ABCO    AMCR  AMCR-2         1701        14        290
##  9 85    ABCO    AMCR  AMCR-2         1701        14        290
## 10 86    ABCO    AMCR  AMCR-2         1701        14        290
## # ... with 15 more rows, and 53 more variables: BasDia2016.cm <dbl>,
## #   LastYearGrth.cm <dbl>, Light_File <fct>, DIFN.all <dbl>,
## #   ImmedAboveSpp <fct>, ImmedAboveHt.cm <int>, ShrubSpp01 <fct>,
## #   ShrubSpp02 <fct>, ShrubSpp03 <fct>, Cov1 <int>, Cov2 <int>,
## #   Cov3 <int>, Ht1 <dbl>, Ht2 <dbl>, Ht3 <dbl>, Cov1.2 <int>,
## #   Cov1.3 <int>, Ht1.2 <dbl>, Ht1.3 <dbl>, Genus <fct>, ShrG1 <fct>,
## #   IAG <fct>, Years <int>, Date <fct>, LAI <dbl>, DIFN.53 <dbl>,
## #   DataSheet2017 <chr>, Map <chr>, Status <chr>, BasDia2017.mm.1 <dbl>,
## #   BasDia2017.mm.2 <dbl>, notes <chr>, BasDia2017.mm.ave <dbl>,
…
