Fir volume growth analysis exploration - fire footprints
…
## 
##  VSURF computation time: 54.6 secs 
## 
##  VSURF selected: 
##  21 variables at thresholding step (in 18.3 secs)
##  12 variables at interpretation step (in 25.1 secs)
##  5 variables at prediction step (in 11.1 secs)

vsurf$varselect.pred

## [1] 20 19 14  2  1

xdf[vsurf$varselect.pred]

## # A tibble: 68 x 5
##    vol_pre_cm2 BasDia2016.cm  Ht1.3 Elevation Fire 
##          <dbl>         <dbl>  <dbl>     <dbl> <fct>
##  1      0.510          0.783  0.696     0.105 CLVD 
##  2     -0.345         -0.226  0.353     0.105 CLVD 
##  3      4.99           3.17   0.501     0.111 CLVD 
##  4      2.12           2.32   0.500     0.111 CLVD 
##  5     -0.365         -0.384  2.70      0.173 FRDS 
##  6     -0.450         -0.543 -1.57     -0.102 AMCR 
##  7     -0.463         -0.632 -1.49     -0.102 AMCR 
##  8     -0.407         -0.321 -1.18     -0.102 AMCR 
##  9     -0.468         -0.968 -0.637    -0.102 AMCR 
## 10     -0.0162         0.821 -0.846    -0.102 AMCR 
## # ... with 58 more rows
…
## 
##  VSURF computation time: 53.8 secs 
## 
##  VSURF selected: 
##  18 variables at thresholding step (in 25.4 secs)
##  8 variables at interpretation step (in 22.9 secs)
##  5 variables at prediction step (in 5.5 secs)

vsurf2$varselect.pred

## [1] 11 17  6 12  8

xdf[vsurf2$varselect.pred]

## # A tibble: 68 x 5
##    Cov1.3 ShrubSpp03 tree_Ht_cm    Ht1 shrubarea3
##     <dbl> <fct>           <dbl>  <dbl>      <dbl>
##  1  1.63  ARPA          1.71     0.730      1.25 
##  2  1.90  ARPA          0.00203  0.469      1.01 
##  3  0.737 CEIN          2.45     0.131      0.572
##  4  0.903 ARPA          1.69     0.445      0.658
##  5  0.572 CEIN          0.416    3.05       2.27 
##  6 -2.37  Other        -0.723   -1.51      -1.31 
##  7 -2.41  Other        -1.14    -1.51      -1.30 
##  8 -2.08  Other        -0.412   -1.51      -1.22 
##  9 -1.15  Other        -1.05    -0.695     -0.881
## 10 -0.984 Other         0.278   -1.18      -0.932
## # ... with 58 more rows
…
