Analysis 6: Pinus with shrubarea vertical analysis - fire footprints
…
## 
##  VSURF computation time: 5.1 mins 
## 
##  VSURF selected: 
##  21 variables at thresholding step (in 1.9 mins)
##  13 variables at interpretation step (in 2.2 mins)
##  10 variables at prediction step (in 58 secs)

vsurf$varselect.pred

##  [1]  9  7 12 11 18  8  4  6  5 21

xdf[vsurf$varselect.pred]

## # A tibble: 253 x 10
##      Ht_cm   Years shrubarea3 shrubarea2  Ht1.3 BasDia2016.cm heatload
##      <dbl>   <dbl>      <dbl>      <dbl>  <dbl>         <dbl>    <dbl>
##  1  1.44    1.80        1.08       1.16   0.510         0.385  -1.50  
##  2 -0.0499  1.80        0.858      0.672  0.193        -0.420  -1.50  
##  3  1.90    1.80       -0.103     -0.285 -0.155         1.78   -1.05  
##  4  2.08    1.80        0.443      0.579  0.330         2.29   -1.50  
##  5  1.42    1.80        0.524      0.273  0.329         1.61   -1.64  
##  6 -0.952   1.80        0.727      0.581  0.288        -0.901  -1.63  
##  7  0.311  -0.0223      2.04       2.10   2.37         -0.546  -0.517 
##  8  0.311  -0.0223      2.04       2.10   2.37         -0.546  -0.517 
##  9 -0.200  -0.0223      2.24       2.28   2.69          0.972   0.0311
## 10 -0.681  -0.631      -1.33      -1.26  -1.59         -0.673   1.03  
## # ... with 243 more rows, and 3 more variables: Year <fct>,
## #   incidrad <dbl>, ShrubSpp03 <fct>
…
## 
##  VSURF computation time: 5 mins 
## 
##  VSURF selected: 
##  19 variables at thresholding step (in 2 mins)
##  11 variables at interpretation step (in 2.2 mins)
##  8 variables at prediction step (in 44.3 secs)

vsurf$varselect.pred

## [1]  8  6 16 10  7  4  5 19

xdf[vsurf$varselect.pred]

## # A tibble: 253 x 8
##      Ht_cm   Years  Ht1.3 shrubarea2 BasDia2016.cm incidrad Year 
##      <dbl>   <dbl>  <dbl>      <dbl>         <dbl>    <dbl> <fct>
##  1  1.44    1.80    0.510      1.16          0.385   -1.98  2017 
##  2 -0.0499  1.80    0.193      0.672        -0.420   -1.98  2017 
##  3  1.90    1.80   -0.155     -0.285         1.78    -1.42  2017 
##  4  2.08    1.80    0.330      0.579         2.29    -1.23  2017 
##  5  1.42    1.80    0.329      0.273         1.61    -1.24  2017 
##  6 -0.952   1.80    0.288      0.581        -0.901   -1.40  2017 
##  7  0.311  -0.0223  2.37       2.10         -0.546    0.643 2017 
##  8  0.311  -0.0223  2.37       2.10         -0.546    0.643 2017 
##  9 -0.200  -0.0223  2.69       2.28          0.972    0.229 2017 
## 10 -0.681  -0.631  -1.59      -1.26         -0.673   -0.266 2017 
## # ... with 243 more rows, and 1 more variable: ShrubSpp03 <fct>
…
