Diameter ~ Height for fire footprints
…
df <- df %>% 
  filter(!is.na(BasDia2017.mm.1))

Calculate average 2017 dia in cm

df <- df %>% 
  mutate(BasDia2017.cm = ((BasDia2017.mm.1 + BasDia2017.mm.2)/2)/10)

Check

df %>% 
  dplyr::select(BasDia2016.cm, BasDia2017.cm, BasDia2017.mm.1, BasDia2017.mm.2)

## # A tibble: 75 x 4
##    BasDia2016.cm BasDia2017.cm BasDia2017.mm.1 BasDia2017.mm.2
##            <dbl>         <dbl>           <dbl>           <dbl>
##  1          3.44         3.15             30.7            32.3
##  2          1.85         1.66             16.6            16.6
##  3          6.19         7.9              79              79  
##  4          7.2          8.2              79              85  
##  5          5.86         6.72             69.8            64.5
##  6          0.9          0.445             4.3             4.6
##  7          2.48         2.44             23.7            25  
##  8          2.7          2.54             24.3            26.5
##  9          3.12         2.93             28.8            29.8
## 10          1.3          1.3              12.3            13.7
## # ... with 65 more rows
…
Calculate average 2017 dia in cm

df <- df %>% 
  mutate(BasDia2017.cm = ((BasDia2017.mm.1 + BasDia2017.mm.2)/2)/10)

Check

df %>% 
  dplyr::select(BasDia2016.cm, BasDia2017.cm, BasDia2017.mm.1, BasDia2017.mm.2)

## # A tibble: 93 x 4
##    BasDia2016.cm BasDia2017.cm BasDia2017.mm.1 BasDia2017.mm.2
##            <dbl>         <dbl>           <dbl>           <dbl>
##  1          3.52         4.00             40.3            39.8
##  2          4.24         5.45             52.8            56.2
##  3          0.65         0.4               4.1             3.9
##  4          1.28         1.43             14.2            14.4
##  5          0.74         0.535             5.3             5.4
##  6          0.56         0.395             4               3.9
##  7          0.68         0.585             5.8             5.9
##  8          1.09         1.18             11.5            12  
##  9          0.56         0.43              4.1             4.5
## 10          0.95         0.97             10.3             9.1
## # ... with 83 more rows
…
