Pinus with shrubarea vertical analysis - fire footprints
…
##          value            coef    i
## 1  1.535431464     (Intercept) 1000
## 2 -0.013092499          Ht_cm1 1000
## 3 -0.052050850           Years 1000
## 4 -0.003713949 sqrt_shrubarea3 1000
## 5 -1.733211306        heatload 1000
## 6  0.276249261  ShrubSpp03CECO 1000

coef_all %>% 
  group_by(i) %>% 
  count()

## # A tibble: 1,000 x 2
## # Groups:   i [1,000]
##        i     n
##    <int> <int>
##  1     1    14
##  2     2    14
##  3     3    14
##  4     4    14
##  5     5    14
##  6     6    14
##  7     7    14
##  8     8    14
##  9     9    14
## 10    10    14
## # ... with 990 more rows
…
