simulations_test
…
test_dia <- dfsimallreps %>% 
  group_by(rep, ID_withinrep) %>% 
  filter(Years %in% c(8,9)) %>% 
  dplyr::select(Sdlg, ID_withinrep, Years, Species, ShrubSpp03, shrubarea3, dia.cm) %>% 
  arrange(rep, ID_withinrep, Years)

## Adding missing grouping variables: `rep`

test_dia <- pivot_wider(test_dia, id_cols = c(Years, rep, ID_withinrep), names_from = Years, values_from = dia.cm)
test_dia <- test_dia %>% 
  rename(year8 = `8`, year9 = `9`)
test_dia

## # A tibble: 10,000 x 4
## # Groups:   rep, ID_withinrep [10,000]
##      rep ID_withinrep year8 year9
##    <int>        <int> <dbl> <dbl>
##  1     1            1  1.2  0.477
##  2     1            2  1.13 0.249
##  3     1            3  0.76 0.363
##  4     1            4  1.59 2.13 
##  5     1            5  0.98 0.737
##  6     1            6  1.24 1.68 
##  7     1            7  0.89 0.257
##  8     1            8  0.78 0.361
##  9     1            9  1.62 1.26 
## 10     1           10  0.89 0.257
## # ... with 9,990 more rows
…
