tests
…
ALL TESTS TOGETHER

test1

## [1] TRUE

test2

## # A tibble: 1,853 x 4
##      rep ID        dia.cmYear20 dia.cmYear19
##    <int> <chr>            <dbl>        <dbl>
##  1     1 104-1-52          3.20         2.98
##  2     2 104-2-52          3.49         3.48
##  3     7 104-7-17          5.20         4.87
##  4     9 104-9-20          5.04         4.82
##  5     9 104-9-26          5.04         4.82
##  6    10 104-10-53         3.65         3.63
##  7    12 104-12-32         4.91         4.64
##  8    14 104-14-59         3.93         3.75
##  9    15 104-15-34        NA            4.27
## 10    16 104-16-51         4.10         3.85
## # ... with 1,843 more rows
…
