tests
…
ALL TESTS TOGETHER

test1

## [1] TRUE

test2

## # A tibble: 3,648 x 4
##      rep ID        dia.cmYear20 dia.cmYear19
##    <int> <chr>            <dbl>        <dbl>
##  1     3 104-3-69          5.10         4.79
##  2     3 104-3-71          5.10         4.79
##  3     3 104-3-89          5.10         4.79
##  4     4 104-4-68          5.12         4.80
##  5     7 104-7-52          3.63         3.44
##  6     7 104-7-84          3.63         3.44
##  7     9 104-9-52          3.92         3.75
##  8     9 104-9-85          3.92         3.75
##  9    12 104-12-76         5.32         5.03
## 10    14 104-14-88         4.25         4.03
## # ... with 3,638 more rows
…
