Compile and Clean Dendro Data
…
Make seedling color column all lower case

df_full %>% 
  mutate(NEEDLE_COLOR = tolower(NEEDLE_COLOR))

## # A tibble: 334 x 35
##     COMP DATE                TIME  SEEDLING SPECIES HEIGHT `dia/ht`
##    <dbl> <dttm>              <chr> <chr>    <chr>    <dbl>    <dbl>
##  1   180 2017-08-14 00:00:00 0.54 1        PIPO        19    0.137
##  2   180 2017-08-23 00:00:00 0.66 4        ABCO        19    0.10 
##  3   180 2017-08-17 00:00:00 0.45 8        PIPO        32    0.153
##  4   180 2017-08-14 00:00:00 0.63 9        PIPO        68    0.140
##  5   180 2017-08-14 00:00:00 0.61 10       PIPO        56    0.130
##  6   180 2017-08-14 00:00:00 0.625 11       PIPO        63    0.137
##  7   180 2017-08-14 00:00:00 0.625 12       PIPO        72    0.129
##  8   180 2017-08-14 00:00:00 0.64 13       PIPO        75    0.163
##  9   180 2017-08-14 00:00:00 0.65 14       PIPO        56    0.191
## 10   180 2017-08-14 00:00:00 0.65 15       PIPO        92    0.126
## #  with 324 more rows, and 28 more variables: DEAD_ALIVE <chr>,
## #   BAS_DIA_1_mm <dbl>, BAS_DIA_2_mm <dbl>, LAST_YR_GR_cm <dbl>,
## #   MINUS_1_GR_cm <dbl>, MINUS_2_GR_cm <dbl>, PERC_NEEDLES <chr>,
## #   NEEDLE_COLOR <chr>, `BLACK DOTS` <chr>, BARK <chr>, BUDS <chr>,
## #   `Growing?` <chr>, SUPPRESSED <chr>, NOTES <chr>, `got it` <chr>,
## #   MECH_DAMAGE <dbl>, PATH_DAMAGE <chr>, Practice <chr>, `Tops
## #   cut?` <chr>, `photo checked in lab?` <chr>, thrown_out <dbl>,
## #   Notes <chr>, Cut_at_bottom <dbl>, DEAD <fct>, BAS_DIA_AVE <dbl>,
## #   PAIR <chr>, exclude_reason <lgl>, mateless <dbl>
…
View BU duplicates and delete non-BU ones

dups <- df %>% 
  group_by(tree) %>% 
  mutate(count = n()) %>% 
  filter(count != 3) %>% 
  arrange(tree)
dups

## # A tibble: 72 x 19
## # Groups:   tree [12]
##    board tree  series radius `2008` `2009` `2010` `2011` `2012` `2013`
##    <chr> <chr> <chr>  <chr>   <dbl>  <dbl>  <dbl>  <dbl>  <dbl>  <dbl>
##  1 P1Bd 102B  102BB 1          NA     NA     NA   0.25   0.32   0.24
##  2 P1Bd 102B  102BB 2          NA     NA     NA   0.24   0.35   0.23
##  3 P1Bd 102B  102BB 3          NA     NA     NA   0.26   0.27   0.32
##  4 P1Bd 102B  102BR1 1          NA     NA     NA  NA     NA     NA   
##  5 P1Bd 102B  102BR2 2          NA     NA     NA  NA     NA     NA   
##  6 P1Bd 102B  102BR3 3          NA     NA     NA  NA     NA     NA   
##  7 P1Bd 109   109BU 1          NA     NA     NA   0.27   0.3    0.52
##  8 P1Bd 109   109BU 2          NA     NA     NA   0.28   0.27   0.44
##  9 P1Bd 109   109BU 3          NA     NA     NA   0.26   0.35   0.41
## 10 P1Bd 109   109R1  1          NA     NA     NA  NA     NA     NA   
## #  with 62 more rows, and 9 more variables: `2014` <dbl>, `2015` <dbl>,
## #   `2016` <dbl>, `2007` <dbl>, `2004` <dbl>, `2005` <dbl>, `2006` <dbl>,
## #   BU <dbl>, count <int>
…
