date_dead_dendro
…
##   year tree     growth
## 1 2014  100 0.39000000
## 2 2015  100 0.15666667
## 3 2016  100 0.33666667
## 4 2012  101 0.69000000
## 5 2013  101 0.81000000
## 6 2014  101 0.01333333

rwla2_summary <- rwla2 %>% 
  group_by(tree) %>% 
  summarize(n = n()) %>% 
  arrange(desc(n))
rwla2_summary

## # A tibble: 87 x 2
##    tree      n
##    <chr> <int>
##  1 201      10
##  2 41       10
##  3 129       9
##  4 161       9
##  5 51        9
##  6 68        9
##  7 78        9
##  8 102       8
##  9 112       8
## 10 131       8
## # ... with 77 more rows
…
dfa <- dfa %>% 
  mutate(Year =as.numeric(Year))

List trees in descening age order in order to start with longest series

Exclude trees with green foliage

rwla2_summary_unkn <- rwla2_summary %>% 
  filter(!tree %in% definitely_green)
rwla2_summary_unkn 

## # A tibble: 76 x 2
##    tree      n
##    <chr> <int>
##  1 41       10
##  2 129       9
##  3 161       9
##  4 51        9
##  5 68        9
##  6 78        9
##  7 102       8
##  8 112       8
##  9 131       8
## 10 139       8
## # ... with 66 more rows
…
