Dating dead PIPO from dendro
…
rwlp_dt <- detrend(rwl = rwlp, method = "Mean")

Reshape data frame to identify trees with the most rings

rwlp2 <- rwlp %>% 
  mutate(year = row.names(rwlp))
rwlp2 <- gather(rwlp2, key = "tree", value = "growth", 1:ncol(rwlp)) %>% 
  filter(!is.na(growth))
rwlp2_summary <- rwlp2 %>% 
  group_by(tree) %>% 
  summarize(n = n()) %>% 
  arrange(desc(n))
rwlp2_summary

## # A tibble: 76 x 2
##    tree      n
##    <chr> <int>
##  1 142      11
##  2 115       9
##  3 70        9
##  4 15        8
##  5 200       8
##  6 209       8
##  7 151       7
##  8 182       7
##  9 196       7
## 10 213       7
## #  with 66 more rows
…
2016

dfpfull %>% 
  dplyr::select(tree, PERC_NEEDLES, NEEDLE_COLOR, BARK, BUDS, Growing)  %>% 
  filter(tree %in% died2016) %>% 
  distinct() %>% 
  arrange(PERC_NEEDLES) %>% 
  arrange(Growing)

## # A tibble: 42 x 6
##    tree  PERC_NEEDLES NEEDLE_COLOR          BARK     BUDS   Growing        
##    <chr> <chr>        <chr>                 <chr>    <chr>  <chr>          
##  1 71    99           reddish brown         intact   intact AFTER 2017 GRO
##  2 19    60           brown                 intact   none   MID 2017 GROWTH
##  3 63    90           brown                 intact   intact MID 2017 GROWTH
##  4 142   20           orangish to grayish  intact   intact MID 2017 OR 20
##  5 109   50           greyish brown         intact   intact MID 2017 OR 20
##  6 115   50           greyish brown         intact   intact MID 2017 OR 20
##  7 118   70           orangish to grayish  intact   intact MID 2017 OR 20
##  8 72    85           greyish brown         flaking parti MID 2017 OR MI
##  9 75    90           yellowish brown       intact   intact N              
## 10 25    40           light brown           intact   intact NO             
## #  with 32 more rows

2015

dfpfull %>% 
  dplyr::select(tree, HEIGHT, PERC_NEEDLES, NEEDLE_COLOR, BARK, BUDS, Growing)  %>% 
  filter(tree %in% died2015) %>% 
  distinct() %>% 
  arrange(PERC_NEEDLES) %>% 
  arrange(Growing)

## # A tibble: 28 x 7
##    tree  HEIGHT PERC_NEEDLES NEEDLE_COLOR     BARK      BUDS     Growing   
##    <chr>  <dbl> <chr>        <chr>            <chr>     <chr>    <chr>     
##  1 110       29 50           orange           intact    intact   AFTER 201
##  2 121       16 70           light brown      intact    intact   AFTER 201
##  3 150       67 0            unk              cracking not int BEFORE 20
##  4 106       67 20           orangish to gra intact    intact   BEFORE 20
##  5 123       47 20           light brown      intact    intact   BEFORE 20
##  6 74        57 0.1          gray             cracking gone     END OF 20
##  7 124       64 60           orangish to gra intact    missing  MID 2016 
##  8 107       54 5            orangish to gra intact    burst    MID 2017 
##  9 67        27 40           brown            intact    none     MID 2017 
## 10 70        23 0            unk              cracking only on NO        
## #  with 18 more rows
…
