date_dead_dendro
…
rwla_dt <- detrend(rwl = rwla, method = "Mean")

Reshape data frame to identify trees with the most rings

rwla2 <- rwla %>% 
  mutate(year = row.names(rwla))
rwla2 <- gather(rwla2, key = "tree", value = "growth", 1:ncol(rwla)) %>% 
  filter(!is.na(growth))
rwla2_summary <- rwla2 %>% 
  group_by(tree) %>% 
  summarize(n = n()) %>% 
  arrange(desc(n))
rwla2_summary

## # A tibble: 82 x 2
##    tree      n
##    <chr> <int>
##  1 201      10
##  2 41       10
##  3 129       9
##  4 161       9
##  5 51        9
##  6 68        9
##  7 78        9
##  8 102       8
##  9 131       8
## 10 139       8
## # ... with 72 more rows
…
dfa <- dfa %>% 
  mutate(Year =as.numeric(Year))

List trees in descening age order in order to start with longest series

Exclude trees with green foliage

rwla2_summary_unkn <- rwla2_summary %>% 
  filter(!tree %in% definitely_green)
rwla2_summary_unkn 

## # A tibble: 70 x 2
##    tree      n
##    <chr> <int>
##  1 41       10
##  2 129       9
##  3 161       9
##  4 51        9
##  5 68        9
##  6 78        9
##  7 102       8
##  8 131       8
##  9 139       8
## 10 184-A     8
## # ... with 60 more rows
…
## [1] 66

Summarize physical characteristics of trees that I think died in each year

dfafull <- tbl_df(dfafull)

2017

dfafull %>% 
  dplyr::select(tree, PERC_NEEDLES, NEEDLE_COLOR, BARK, BUDS)  %>% 
  filter(tree %in% died2017) %>% 
  distinct

## # A tibble: 22 x 5
##    tree  PERC_NEEDLES NEEDLE_COLOR      BARK              BUDS             
##    <chr> <chr>        <chr>             <chr>             <chr>            
##  1 201   99           light green to o~ intact            not formed; new ~
##  2 215   50           red to light gre~ cracking in one ~ intact           
##  3 198   99           red               intact            not formed; new ~
##  4 55    99           tan to light gre~ intact            intact           
##  5 100   90           red to light gre~ small crack       intact           
##  6 161   90           red-tan           breaking bottom ~ partial          
##  7 137   95           red               intact            intact           
##  8 30    25           green, tan, red   bark              intact           
##  9 223   99           red               intact            intact           
## 10 132   95           red               intact            intact           
## # ... with 12 more rows

2016

dfafull %>% 
  dplyr::select(tree, PERC_NEEDLES, NEEDLE_COLOR, BARK, BUDS, Growing)  %>% 
  filter(tree %in% died2016) %>% 
  distinct() %>% 
  arrange(PERC_NEEDLES) %>% 
  arrange(Growing)

## # A tibble: 24 x 6
##    tree  PERC_NEEDLES NEEDLE_COLOR BARK         BUDS   Growing          
##    <chr> <chr>        <chr>        <chr>        <chr>  <chr>            
##  1 119   70           orange       intact       intact AFTER 2017 GROWTH
##  2 96    80           red          intact       intact AFTER 2017 GROWTH
##  3 78    98           reddish tan  intact       intact AFTER 2017 GROWTH
##  4 18    99           red          intact       intact AFTER 2017 GROWTH
##  5 29    80           red          intact       intact NO               
##  6 235   90           red          intact       intact NO               
##  7 230   90           red          intact       intact NO               
##  8 33    90           red          intact       intact NO               
##  9 102   90           red          small cracks intact NO               
## 10 47    95           red          intact       intact NO               
## # ... with 14 more rows
…
