Dendro_analysis
…
summary(df$dia_mm)

##    Min. 1st Qu.  Median    Mean 3rd Qu.    Max. 
##   1.450   5.100   7.750   8.258  10.400  29.900

FIRS

Narrow down to just firs

dfa <- df %>% 
  filter(SPECIES == "ABCO") %>% 
  distinct()
dfa

## # A tibble: 171 x 17
##    `2004` `2005` `2006` `2007` `2008` `2009`  `2010`  `2011` `2012` `2013`
##     <dbl>  <dbl>  <dbl>  <dbl>  <dbl>  <dbl>   <dbl>   <dbl>  <dbl>  <dbl>
##  1     NA     NA     NA     NA     NA  NA    NA      NA      NA     NA    
##  2     NA     NA     NA     NA     NA   0.04  0.0733  0.0367  0.103  0.15 
##  3     NA     NA     NA     NA     NA  NA    NA      NA       0.69   0.81 
##  4     NA     NA     NA     NA     NA  NA    NA      NA       0.697  0.707
##  5     NA     NA     NA     NA     NA   0.26  0.183   0.187   0.07   0.187
##  6     NA     NA     NA     NA     NA  NA    NA      NA      NA     NA    
##  7     NA     NA     NA     NA     NA  NA    NA      NA      NA     NA    
##  8     NA     NA     NA     NA     NA   0.21  0.17    0.153   0.203  0.19 
##  9     NA     NA     NA     NA     NA  NA    NA      NA       0.567  0.513
## 10     NA     NA     NA     NA     NA  NA    NA      NA       0.377  0.51 
## #  with 161 more rows, and 7 more variables: `2014` <dbl>, `2015` <dbl>,
## #   `2016` <dbl>, tree <chr>, SPECIES <chr>, DEAD_ALIVE <chr>,
## #   dia_mm <dbl>
…
ggsave("../../results/figures/GrowthMortality/histogram_dead_alive_abco_dendro.png")

## Saving 7 x 5 in image

PINES

Narrow down to just pines

dfp <- df %>% 
  filter(SPECIES == "PIPO") %>% 
  distinct()
dfp

## # A tibble: 150 x 17
##    `2004` `2005` `2006` `2007` `2008` `2009` `2010` `2011` `2012` `2013`
##     <dbl>  <dbl>  <dbl>  <dbl>  <dbl>  <dbl>  <dbl>  <dbl>  <dbl>  <dbl>
##  1     NA     NA     NA     NA     NA     NA     NA NA     NA     NA    
##  2     NA     NA     NA     NA     NA     NA     NA NA      0.353  0.387
##  3     NA     NA     NA     NA     NA     NA     NA NA      0.66   0.593
##  4     NA     NA     NA     NA     NA     NA     NA NA      0.443  0.35 
##  5     NA     NA     NA     NA     NA     NA     NA NA     NA      0.597
##  6     NA     NA     NA     NA     NA     NA     NA NA     NA      0.353
##  7     NA     NA     NA     NA     NA     NA     NA NA     NA     NA    
##  8     NA     NA     NA     NA     NA     NA     NA NA     NA     NA    
##  9     NA     NA     NA     NA     NA     NA     NA NA     NA      0.427
## 10     NA     NA     NA     NA     NA     NA     NA  0.323  0.343  0.24 
## #  with 140 more rows, and 7 more variables: `2014` <dbl>, `2015` <dbl>,
## #   `2016` <dbl>, tree <chr>, SPECIES <chr>, DEAD_ALIVE <chr>,
## #   dia_mm <dbl>
…
