Vertical growth analysis
…
Plot growth by year

df2 <- gather(df, key = "year", value = "gr_rel", c(gr1, gr2, gr3)) %>% 
  mutate(year = ifelse(year == "gr1", "top growth", year)) %>% 
  mutate(year = ifelse(year == "gr2", "top growth - 1", year)) %>% 
  mutate(year = ifelse(year == "gr3", "top growth - 2", year)) %>% 
  mutate(year = as.factor(year))

df2$year <-  factor(df2$year, levels = rev(levels(df2$year)))

df2 %>% dplyr::select(year, gr_rel, SEEDLING)

## # A tibble: 990 x 3
##    year       gr_rel SEEDLING
##    <fct>       <dbl> <chr>   
##  1 top growth 0.152  1       
##  2 top growth 0.0983 4       
##  3 top growth 0.296  8       
##  4 top growth 0.0726 9       
##  5 top growth 0.0980 10      
##  6 top growth 0.0788 11      
##  7 top growth 0.0450 12      
##  8 top growth 0.0760 13      
##  9 top growth 0.0200 14      
## 10 top growth 0.0166 15      
## #  with 980 more rows
…
