live chronology
…
##   year tree    growth
## 1 2012 106B 0.4433333
## 2 2013 106B 0.3500000
## 3 2014 106B 0.3966667
## 4 2015 106B 0.4033333
## 5 2016 106B 0.2866667
## 6 2013 107B 0.3533333

rwlp2_summary <- rwlp2 %>% 
  group_by(tree) %>% 
  summarize(n = n()) %>% 
  arrange(desc(n))
rwlp2_summary

## # A tibble: 75 x 2
##    tree       n
##    <chr>  <int>
##  1 150B       8
##  2 160B       8
##  3 185B-P     8
##  4 42B        8
##  5 49B        8
##  6 61B        8
##  7 157B       7
##  8 173B       7
##  9 181B       7
## 10 182B       7
## # ... with 65 more rows
…
##   year tree     growth
## 1 2009 100B 0.04000000
## 2 2010 100B 0.07333333
## 3 2011 100B 0.03666667
## 4 2012 100B 0.10333333
## 5 2013 100B 0.15000000
## 6 2014 100B 0.09000000

rwla2_summary <- rwla2 %>% 
  group_by(tree) %>% 
  summarize(n = n()) %>% 
  arrange(desc(n))
rwla2_summary

## # A tibble: 84 x 2
##    tree       n
##    <chr>  <int>
##  1 183B-A    13
##  2 51B       11
##  3 184B-A    10
##  4 201B      10
##  5 32B       10
##  6 41B       10
##  7 78B       10
##  8 197B       9
##  9 206B       9
## 10 214B       9
## # ... with 74 more rows
…
PIPO

Calculate standard errors

dfpstd <- dfp %>% 
  group_by(Year) %>% 
  mutate(mean_gr_year = mean(growth_detrended)) %>% 
  mutate(n_year = n()) %>% 
  mutate(stderror = sd(growth_detrended)/sqrt(n_year)) %>% 
  mutate(min = mean_gr_year-2*stderror) %>% 
  mutate(max = mean_gr_year+2*stderror)
dfpstd

## # A tibble: 397 x 8
## # Groups:   Year [8]
##    tree   Year  growth_detrended mean_gr_year n_year stderror   min   max
##    <chr>  <chr>            <dbl>        <dbl>  <int>    <dbl> <dbl> <dbl>
##  1 150B   2009             1.11         0.956      6   0.129  0.698  1.21
##  2 160B   2009             0.870        0.956      6   0.129  0.698  1.21
##  3 185B-P 2009             0.905        0.956      6   0.129  0.698  1.21
##  4 42B    2009             0.857        0.956      6   0.129  0.698  1.21
##  5 49B    2009             0.522        0.956      6   0.129  0.698  1.21
##  6 61B    2009             1.47         0.956      6   0.129  0.698  1.21
##  7 150B   2010             1.26         0.990     15   0.0792 0.832  1.15
##  8 157B   2010             0.537        0.990     15   0.0792 0.832  1.15
##  9 160B   2010             0.915        0.990     15   0.0792 0.832  1.15
## 10 173B   2010             0.835        0.990     15   0.0792 0.832  1.15
## # ... with 387 more rows
…
