simulations_hybrid
…
## [1] -2.548003

mean_coef_int

## [1] -9.245614

  # Check
  dfp_new2 %>% arrange(PAIR) %>% dplyr::select(SEEDLING, DEAD_ALIVE, gr1, gr2, gr3, death_year, death_year_temp, gr_rel_ave, log_gr_rel_ave)

## Source: local data frame [157 x 9]
## Groups: <by row>
## 
## # A tibble: 157 x 9
##    SEEDLING DEAD_ALIVE    gr1    gr2   gr3 death_year death_year_temp
##    <chr>    <fct>       <dbl>  <dbl> <dbl>      <dbl>           <dbl>
##  1 1        DEAD       0.152  0.187  0.264       2017            2016
##  2 1B       ALIVE      0.25   0.25   0.379       2017            2016
##  3 10       DEAD       0.0980 0.183  0.330       2016            2016
##  4 10B      ALIVE      0.190  0.224  0.308       2016            2016
##  5 106      DEAD       0.0703 0.0830 0.163       2015            2015
##  6 106B     ALIVE      0.116  0.184  0.215       2015            2015
##  7 107      DEAD       0.0672 0.205  0.325       2015            2015
##  8 107B     ALIVE      0.267  0.265  0.495       2015            2015
##  9 109      DEAD       0.0714 0.217  0.420       2016            2015
## 10 109B     ALIVE      0.238  0.373  0.417       2016            2015
## #  with 147 more rows, and 2 more variables: gr_rel_ave <dbl>,
## #   log_gr_rel_ave <dbl>
…
