Combine_shrub_data
…
## AMERICAN RIVER       ANTELOPE            BAR       BASSETTS BTU LIGHTENING 
##             50             46             18            109             52 
##         BUTLER            CUB           DEEP            ELK          FREDS 
##             15            137             16              5            142 
##        HARDING      MOONLIGHT        PENDOLA          POWER        RALSTON 
##             19            176             37            157             11 
##           RICH           RUSH        SHOWERS           SIMS          SLIDE 
##             43             15              9             74             11 
##        SPANISH       STRAYLOR           ZACA 
##            191             54              5

welch %>% 
  filter(Fire %in% c("AMERICAN RIVER", "MOONLIGHT", "PIUTE", "ANTELOPE", "POWER"))

## # A tibble: 429 x 12
##    years_since_fire Year_meas fire_year Shrub_species PlotID Shrub_cover
##               <dbl>     <dbl>     <dbl> <chr>         <chr>        <dbl>
##  1                5      2009      2004 CHFO          PWR09~        50  
##  2                5      2009      2004 CEIN3         PWR09~        10  
##  3                5      2009      2004 ARPA6         PWR09~         1  
##  4                5      2009      2004 ARPA6         PWR09~         8  
##  5                5      2009      2004 CEIN3         PWR09~        13  
##  6                5      2009      2004 CHFO          PWR09~        15  
##  7                5      2009      2004 CEIN3         PWR09~         5  
##  8                5      2009      2004 CHFO          PWR09~         2  
##  9                5      2009      2004 RIBES         PWR09~         0.5
## 10                5      2009      2004 CHFO          PWR09~         0.5
## # ... with 419 more rows, and 6 more variables: modal_ht_cm <dbl>, ID <dbl>,
## #   Fire <chr>, Date <dttm>, FireSev <dbl>, df_source <chr>
…
