Combine_shrub_data
…
focal_spp <- df %>% 
  filter(df_source == "me") %>% 
  dplyr::select(Shrub_species) %>% 
  distinct()
focal_spp

## # A tibble: 21 x 1
##    Shrub_species
##    <chr>        
##  1 ARPA6_ARVI   
##  2 CECO         
##  3 CEIN3        
##  4 CHSE11       
##  5 CHFO         
##  6 PREM         
##  7 RIBES        
##  8 CEPR         
##  9 Ribes        
## 10 willow       
## # ... with 11 more rows
…
SUPPLEMENT FIG: Plot for all species that are in my data

focal_spp <- df %>% 
  filter(df_source == "me") %>% 
  dplyr::select(Shrub_species) %>% 
  distinct()
focal_spp

## # A tibble: 21 x 1
##    Shrub_species
##    <chr>        
##  1 ARPA6_ARVI   
##  2 CECO         
##  3 CEIN3        
##  4 CHSE11       
##  5 CHFO         
##  6 PREM         
##  7 RIBES        
##  8 CEPR         
##  9 Ribes        
## 10 willow       
## # ... with 11 more rows
…
